%!PS-Adobe-3.0 EPSF-3.0
%%Title: IController_stiff.eps
%%Creator: Matplotlib v3.4.2, https://matplotlib.org/
%%CreationDate: Fri Jul 23 14:48:41 2021
%%Orientation: portrait
%%BoundingBox: 75 223 537 569
%%HiResBoundingBox: 75.600000 223.200000 536.400000 568.800000
%%EndComments
%%BeginProlog
/mpldict 11 dict def
mpldict begin
/_d { bind def } bind def
/m { moveto } _d
/l { lineto } _d
/r { rlineto } _d
/c { curveto } _d
/cl { closepath } _d
/ce { closepath eofill } _d
/box {
      m
      1 index 0 r
      0 exch r
      neg 0 r
      cl
    } _d
/clipbox {
      box
      clip
      newpath
    } _d
/sc { setcachedevice } _d
%!PS-Adobe-3.0 Resource-Font
%%Creator: Converted from TrueType to Type 3 by Matplotlib.
10 dict begin
/FontName /DejaVuSans def
/PaintType 0 def
/FontMatrix [0.00048828125 0 0 0.00048828125 0 0] def
/FontBBox [-2090 -948 3673 2524] def
/FontType 3 def
/Encoding [/period /zero /one /two /minus /four /t /six /five /eight /y] def
/CharStrings 12 dict dup begin
/.notdef 0 def
/period{651 0 219 0 430 254 sc
219 254 m
430 254 l
430 0 l
219 0 l
219 254 l

ce} _d
/zero{1303 0 135 -29 1167 1520 sc
651 1360 m
547 1360 469 1309 416 1206 c
364 1104 338 950 338 745 c
338 540 364 387 416 284 c
469 182 547 131 651 131 c
756 131 834 182 886 284 c
939 387 965 540 965 745 c
965 950 939 1104 886 1206 c
834 1309 756 1360 651 1360 c

651 1520 m
818 1520 946 1454 1034 1321 c
1123 1189 1167 997 1167 745 c
1167 494 1123 302 1034 169 c
946 37 818 -29 651 -29 c
484 -29 356 37 267 169 c
179 302 135 494 135 745 c
135 997 179 1189 267 1321 c
356 1454 484 1520 651 1520 c

ce} _d
/one{1303 0 225 0 1114 1493 sc
254 170 m
584 170 l
584 1309 l
225 1237 l
225 1421 l
582 1493 l
784 1493 l
784 170 l
1114 170 l
1114 0 l
254 0 l
254 170 l

ce} _d
/two{1303 0 150 0 1098 1520 sc
393 170 m
1098 170 l
1098 0 l
150 0 l
150 170 l
227 249 331 356 463 489 c
596 623 679 709 713 748 c
778 821 823 882 848 932 c
874 983 887 1032 887 1081 c
887 1160 859 1225 803 1275 c
748 1325 675 1350 586 1350 c
523 1350 456 1339 385 1317 c
315 1295 240 1262 160 1217 c
160 1421 l
241 1454 317 1478 388 1495 c
459 1512 523 1520 582 1520 c
737 1520 860 1481 952 1404 c
1044 1327 1090 1223 1090 1094 c
1090 1033 1078 974 1055 919 c
1032 864 991 800 930 725 c
913 706 860 650 771 557 c
682 465 556 336 393 170 c

ce} _d
/minus{1716 0 217 557 1499 727 sc
217 727 m
1499 727 l
1499 557 l
217 557 l
217 727 l

ce} _d
/four{1303 0 100 0 1188 1493 sc
774 1317 m
264 520 l
774 520 l
774 1317 l

721 1493 m
975 1493 l
975 520 l
1188 520 l
1188 352 l
975 352 l
975 0 l
774 0 l
774 352 l
100 352 l
100 547 l
721 1493 l

ce} _d
/t{803 0 55 0 754 1438 sc
375 1438 m
375 1120 l
754 1120 l
754 977 l
375 977 l
375 369 l
375 278 387 219 412 193 c
437 167 488 154 565 154 c
754 154 l
754 0 l
565 0 l
423 0 325 26 271 79 c
217 132 190 229 190 369 c
190 977 l
55 977 l
55 1120 l
190 1120 l
190 1438 l
375 1438 l

ce} _d
/six{1303 0 143 -29 1174 1520 sc
676 827 m
585 827 513 796 460 734 c
407 672 381 587 381 479 c
381 372 407 287 460 224 c
513 162 585 131 676 131 c
767 131 838 162 891 224 c
944 287 971 372 971 479 c
971 587 944 672 891 734 c
838 796 767 827 676 827 c

1077 1460 m
1077 1276 l
1026 1300 975 1318 923 1331 c
872 1344 821 1350 770 1350 c
637 1350 535 1305 464 1215 c
394 1125 354 989 344 807 c
383 865 433 909 492 940 c
551 971 617 987 688 987 c
838 987 956 941 1043 850 c
1130 759 1174 636 1174 479 c
1174 326 1129 203 1038 110 c
947 17 827 -29 676 -29 c
503 -29 371 37 280 169 c
189 302 143 494 143 745 c
143 981 199 1169 311 1309 c
423 1450 573 1520 762 1520 c
813 1520 864 1515 915 1505 c
967 1495 1021 1480 1077 1460 c

ce} _d
/five{1303 0 158 -29 1124 1493 sc
221 1493 m
1014 1493 l
1014 1323 l
406 1323 l
406 957 l
435 967 465 974 494 979 c
523 984 553 987 582 987 c
749 987 881 941 978 850 c
1075 759 1124 635 1124 479 c
1124 318 1074 193 974 104 c
874 15 733 -29 551 -29 c
488 -29 424 -24 359 -13 c
294 -2 227 14 158 35 c
158 238 l
218 205 280 181 344 165 c
408 149 476 141 547 141 c
662 141 754 171 821 232 c
888 293 922 375 922 479 c
922 583 888 665 821 726 c
754 787 662 817 547 817 c
493 817 439 811 385 799 c
332 787 277 768 221 743 c
221 1493 l

ce} _d
/eight{1303 0 139 -29 1163 1520 sc
651 709 m
555 709 479 683 424 632 c
369 581 342 510 342 420 c
342 330 369 259 424 208 c
479 157 555 131 651 131 c
747 131 823 157 878 208 c
933 260 961 331 961 420 c
961 510 933 581 878 632 c
823 683 748 709 651 709 c

449 795 m
362 816 295 857 246 916 c
198 975 174 1048 174 1133 c
174 1252 216 1347 301 1416 c
386 1485 503 1520 651 1520 c
800 1520 916 1485 1001 1416 c
1086 1347 1128 1252 1128 1133 c
1128 1048 1104 975 1055 916 c
1007 857 940 816 854 795 c
951 772 1027 728 1081 662 c
1136 596 1163 515 1163 420 c
1163 275 1119 164 1030 87 c
942 10 816 -29 651 -29 c
486 -29 360 10 271 87 c
183 164 139 275 139 420 c
139 515 166 596 221 662 c
276 728 352 772 449 795 c

375 1114 m
375 1037 399 976 447 933 c
496 890 564 868 651 868 c
738 868 805 890 854 933 c
903 976 928 1037 928 1114 c
928 1191 903 1252 854 1295 c
805 1338 738 1360 651 1360 c
564 1360 496 1338 447 1295 c
399 1252 375 1191 375 1114 c

ce} _d
/y{1212 0 61 -426 1151 1120 sc
659 -104 m
607 -237 556 -324 507 -365 c
458 -406 392 -426 309 -426 c
162 -426 l
162 -272 l
270 -272 l
321 -272 360 -260 388 -236 c
416 -212 447 -155 481 -66 c
514 18 l
61 1120 l
256 1120 l
606 244 l
956 1120 l
1151 1120 l
659 -104 l

ce} _d
end readonly def

/BuildGlyph {
 exch begin
 CharStrings exch
 2 copy known not {pop /.notdef} if
 true 3 1 roll get exec
 end
} _d

/BuildChar {
 1 index /Encoding get exch get
 1 index /BuildGlyph get exec
} _d

FontName currentdict end definefont pop
end
%%EndProlog
mpldict begin
75.6 223.2 translate
460.8 345.6 0 0 clipbox
gsave
0 0 m
460.8 0 l
460.8 345.6 l
0 345.6 l
cl
1.000 setgray
fill
grestore
gsave
57.6 38.016 m
414.72 38.016 l
414.72 304.128 l
57.6 304.128 l
cl
1.000 setgray
fill
grestore
0.800 setlinewidth
1 setlinejoin
0 setlinecap
[] 0 setdash
0.000 setgray
gsave
/o {
gsave
newpath
translate
0.8 setlinewidth
1 setlinejoin

0 setlinecap

0 0 m
0 -3.5 l

gsave
0.000 setgray
fill
grestore
stroke
grestore
} bind def
73.8327 38.016 o
grestore
/DejaVuSans 10.000 selectfont
gsave

65.879602 23.422250 translate
0.000000 rotate
0.000000 0 m /zero glyphshow
6.362305 0 m /period glyphshow
9.541016 0 m /zero glyphshow
grestore
gsave
/o {
gsave
newpath
translate
0.8 setlinewidth
1 setlinejoin

0 setlinecap

0 0 m
0 -3.5 l

gsave
0.000 setgray
fill
grestore
stroke
grestore
} bind def
115.169 38.016 o
grestore
gsave

107.215903 23.422250 translate
0.000000 rotate
0.000000 0 m /zero glyphshow
6.362305 0 m /period glyphshow
9.541016 0 m /two glyphshow
grestore
gsave
/o {
gsave
newpath
translate
0.8 setlinewidth
1 setlinejoin

0 setlinecap

0 0 m
0 -3.5 l

gsave
0.000 setgray
fill
grestore
stroke
grestore
} bind def
156.505 38.016 o
grestore
gsave

148.552203 23.422250 translate
0.000000 rotate
0.000000 0 m /zero glyphshow
6.362305 0 m /period glyphshow
9.541016 0 m /four glyphshow
grestore
gsave
/o {
gsave
newpath
translate
0.8 setlinewidth
1 setlinejoin

0 setlinecap

0 0 m
0 -3.5 l

gsave
0.000 setgray
fill
grestore
stroke
grestore
} bind def
197.842 38.016 o
grestore
gsave

189.888504 23.422250 translate
0.000000 rotate
0.000000 0 m /zero glyphshow
6.362305 0 m /period glyphshow
9.541016 0 m /six glyphshow
grestore
gsave
/o {
gsave
newpath
translate
0.8 setlinewidth
1 setlinejoin

0 setlinecap

0 0 m
0 -3.5 l

gsave
0.000 setgray
fill
grestore
stroke
grestore
} bind def
239.178 38.016 o
grestore
gsave

231.224805 23.422250 translate
0.000000 rotate
0.000000 0 m /zero glyphshow
6.362305 0 m /period glyphshow
9.541016 0 m /eight glyphshow
grestore
gsave
/o {
gsave
newpath
translate
0.8 setlinewidth
1 setlinejoin

0 setlinecap

0 0 m
0 -3.5 l

gsave
0.000 setgray
fill
grestore
stroke
grestore
} bind def
280.514 38.016 o
grestore
gsave

272.561105 23.422250 translate
0.000000 rotate
0.000000 0 m /one glyphshow
6.362305 0 m /period glyphshow
9.541016 0 m /zero glyphshow
grestore
gsave
/o {
gsave
newpath
translate
0.8 setlinewidth
1 setlinejoin

0 setlinecap

0 0 m
0 -3.5 l

gsave
0.000 setgray
fill
grestore
stroke
grestore
} bind def
321.851 38.016 o
grestore
gsave

313.897406 23.422250 translate
0.000000 rotate
0.000000 0 m /one glyphshow
6.362305 0 m /period glyphshow
9.541016 0 m /two glyphshow
grestore
gsave
/o {
gsave
newpath
translate
0.8 setlinewidth
1 setlinejoin

0 setlinecap

0 0 m
0 -3.5 l

gsave
0.000 setgray
fill
grestore
stroke
grestore
} bind def
363.187 38.016 o
grestore
gsave

355.233706 23.422250 translate
0.000000 rotate
0.000000 0 m /one glyphshow
6.362305 0 m /period glyphshow
9.541016 0 m /four glyphshow
grestore
gsave
/o {
gsave
newpath
translate
0.8 setlinewidth
1 setlinejoin

0 setlinecap

0 0 m
0 -3.5 l

gsave
0.000 setgray
fill
grestore
stroke
grestore
} bind def
404.523 38.016 o
grestore
gsave

396.570007 23.422250 translate
0.000000 rotate
0.000000 0 m /one glyphshow
6.362305 0 m /period glyphshow
9.541016 0 m /six glyphshow
grestore
gsave

234.199062 9.750375 translate
0.000000 rotate
0.000000 0 m /t glyphshow
grestore
gsave
/o {
gsave
newpath
translate
0.8 setlinewidth
1 setlinejoin

0 setlinecap

-0 0 m
-3.5 0 l

gsave
0.000 setgray
fill
grestore
stroke
grestore
} bind def
57.6 41.7351 o
grestore
gsave

26.318750 37.938268 translate
0.000000 rotate
0.000000 0 m /minus glyphshow
8.378906 0 m /one glyphshow
14.741211 0 m /period glyphshow
17.919922 0 m /five glyphshow
grestore
gsave
/o {
gsave
newpath
translate
0.8 setlinewidth
1 setlinejoin

0 setlinecap

-0 0 m
-3.5 0 l

gsave
0.000 setgray
fill
grestore
stroke
grestore
} bind def
57.6 91.7541 o
grestore
gsave

26.318750 87.957180 translate
0.000000 rotate
0.000000 0 m /minus glyphshow
8.378906 0 m /one glyphshow
14.741211 0 m /period glyphshow
17.919922 0 m /zero glyphshow
grestore
gsave
/o {
gsave
newpath
translate
0.8 setlinewidth
1 setlinejoin

0 setlinecap

-0 0 m
-3.5 0 l

gsave
0.000 setgray
fill
grestore
stroke
grestore
} bind def
57.6 141.773 o
grestore
gsave

26.318750 137.976091 translate
0.000000 rotate
0.000000 0 m /minus glyphshow
8.378906 0 m /zero glyphshow
14.741211 0 m /period glyphshow
17.919922 0 m /five glyphshow
grestore
gsave
/o {
gsave
newpath
translate
0.8 setlinewidth
1 setlinejoin

0 setlinecap

-0 0 m
-3.5 0 l

gsave
0.000 setgray
fill
grestore
stroke
grestore
} bind def
57.6 191.792 o
grestore
gsave

34.693750 187.995003 translate
0.000000 rotate
0.000000 0 m /zero glyphshow
6.362305 0 m /period glyphshow
9.541016 0 m /zero glyphshow
grestore
gsave
/o {
gsave
newpath
translate
0.8 setlinewidth
1 setlinejoin

0 setlinecap

-0 0 m
-3.5 0 l

gsave
0.000 setgray
fill
grestore
stroke
grestore
} bind def
57.6 241.811 o
grestore
gsave

34.693750 238.013915 translate
0.000000 rotate
0.000000 0 m /zero glyphshow
6.362305 0 m /period glyphshow
9.541016 0 m /five glyphshow
grestore
gsave
/o {
gsave
newpath
translate
0.8 setlinewidth
1 setlinejoin

0 setlinecap

-0 0 m
-3.5 0 l

gsave
0.000 setgray
fill
grestore
stroke
grestore
} bind def
57.6 291.83 o
grestore
gsave

34.693750 288.032827 translate
0.000000 rotate
0.000000 0 m /one glyphshow
6.362305 0 m /period glyphshow
9.541016 0 m /zero glyphshow
grestore
gsave

20.240625 168.111062 translate
90.000000 rotate
0.000000 0 m /y glyphshow
grestore
1.500 setlinewidth
2 setlinecap
0.122 0.467 0.706 setrgbcolor
gsave
357.12 266.112 57.6 38.016 clipbox
73.832727 91.754055 m
74.060077 91.800461 l
74.515498 92.142059 l
74.952232 91.519751 l
75.175069 92.709376 l
75.340222 92.438095 l
75.59868 92.559118 l
76.566873 93.292516 l
77.122035 89.021059 l
77.271762 93.039323 l
77.399082 93.375017 l
77.742316 93.830871 l
78.008334 93.477328 l
78.2203 93.963843 l
78.454627 93.883236 l
78.755961 94.266364 l
79.060204 93.962359 l
79.308905 94.650528 l
79.533754 94.354041 l
79.786632 94.75615 l
80.078598 94.558072 l
80.358583 95.192899 l
80.603682 94.814812 l
80.842047 95.292563 l
81.105236 95.142227 l
81.386761 95.597426 l
81.654101 95.386823 l
81.901408 95.791808 l
82.150551 95.739387 l
82.416875 95.983198 l
82.949559 96.177995 l
83.199319 96.398947 l
83.453253 96.370457 l
83.71732 96.727792 l
83.981988 96.557563 l
84.238405 97.048826 l
84.490953 96.805796 l
84.7485 97.302917 l
85.012456 97.059806 l
85.275508 97.58017 l
85.533981 97.353271 l
85.791553 97.780656 l
86.053182 97.691736 l
86.317136 97.969092 l
86.835254 98.122998 l
87.090851 98.425858 l
87.348083 98.300989 l
87.606427 98.758898 l
87.864283 98.522873 l
88.121769 99.037189 l
88.38116 98.80263 l
88.643044 99.274717 l
88.906212 99.128835 l
89.168383 99.459007 l
89.687276 99.591472 l
89.943402 99.915442 l
90.197957 99.760444 l
90.453076 100.236303 l
90.711057 100.004965 l
90.971878 100.504002 l
91.234516 100.311054 l
91.497565 100.706445 l
91.760437 100.702102 l
92.020933 100.829279 l
92.27674 101.129339 l
92.528465 100.979861 l
92.781002 101.449793 l
93.039218 101.232489 l
93.302575 101.716845 l
93.567534 101.555987 l
93.831218 101.89279 l
94.349285 101.987604 l
94.599844 102.398126 l
94.849823 102.193885 l
95.106747 102.671483 l
95.372478 102.489243 l
95.640844 102.897912 l
96.163706 102.981997 l
96.413705 103.35276 l
96.660874 103.160688 l
96.91484 103.62981 l
97.180481 103.457528 l
97.451649 103.861798 l
97.975681 103.928802 l
98.22126 104.331416 l
98.465884 104.135378 l
98.723061 104.586879 l
98.995336 104.451289 l
99.533123 104.943056 l
99.77931 104.844975 l
100.01825 105.296581 l
100.269754 105.129084 l
100.542657 105.547353 l
100.823301 105.506487 l
101.089521 105.637258 l
101.332506 106.020233 l
101.566507 105.821776 l
101.818163 106.239713 l
102.098545 106.153677 l
102.645592 106.706018 l
102.877423 106.511375 l
103.109429 106.944382 l
103.37511 106.856109 l
103.952894 107.38004 l
104.191004 107.203622 l
104.410972 107.664315 l
104.661125 107.577258 l
105.260578 108.09795 l
105.503617 107.89145 l
105.714947 108.381308 l
105.956839 108.311635 l
106.576397 108.896255 l
106.813534 108.581472 l
107.016871 109.074249 l
107.264821 109.063831 l
107.595884 109.257501 l
107.898154 109.784144 l
108.114311 109.346397 l
108.318225 109.74805 l
108.60039 109.850653 l
108.942672 109.82971 l
109.202748 110.565113 l
109.401574 110.197805 l
109.966839 110.742951 l
110.260252 110.399883 l
110.475124 111.072219 l
110.694454 111.003344 l
110.995916 111.104902 l
111.295034 111.678195 l
111.524726 111.284761 l
111.74509 111.651681 l
112.03147 111.849762 l
112.325853 111.662272 l
112.560339 112.284564 l
112.784204 112.15764 l
113.06765 112.292466 l
113.358113 112.801811 l
113.591481 112.459749 l
113.817141 112.828607 l
114.10399 113.033103 l
114.390212 112.831374 l
114.620164 113.424226 l
114.849691 113.347112 l
115.142099 113.428837 l
115.419145 113.986965 l
115.644567 113.685232 l
116.180874 114.29901 l
116.443782 114.010733 l
116.665944 114.508486 l
116.921315 114.590632 l
117.214575 114.503936 l
117.460523 115.091194 l
117.687366 114.951262 l
117.966013 115.062789 l
118.240867 115.579766 l
118.470474 115.311305 l
119.008057 115.954198 l
119.259372 115.664254 l
119.483598 116.092371 l
119.757277 116.279637 l
120.033623 116.096605 l
120.265044 116.623932 l
120.800268 116.588298 l
121.04599 117.154341 l
121.27437 117.035969 l
121.557563 117.10592 l
121.820846 117.642773 l
122.047246 117.435179 l
122.309928 117.610745 l
122.588275 118.081742 l
122.822175 117.831217 l
123.354141 118.502613 l
123.595911 118.234862 l
124.116657 118.910982 l
124.367155 118.654253 l
124.876713 119.321418 l
125.133794 119.09251 l
125.360741 119.519905 l
125.636853 119.742537 l
125.898499 119.538284 l
126.125869 119.985305 l
126.396844 120.173259 l
126.661658 119.988229 l
126.889918 120.445532 l
127.157732 120.614613 l
127.423494 120.440172 l
127.652192 120.898543 l
127.919673 121.066387 l
128.184436 120.892687 l
128.412903 121.344174 l
128.682848 121.529116 l
128.944488 121.346796 l
129.172267 121.782487 l
129.447572 122.004245 l
129.704032 121.804237 l
129.931018 122.214336 l
130.213483 122.492148 l
130.463268 122.269071 l
130.978331 122.986025 l
131.221223 122.747477 l
131.737597 123.465777 l
131.974937 123.242307 l
132.220265 123.487259 l
132.491752 123.924494 l
132.723992 123.745347 l
132.990936 123.893593 l
133.246862 124.374555 l
133.474311 124.250517 l
133.761351 124.280846 l
134.003599 124.803061 l
134.516474 124.697142 l
134.75235 125.184593 l
135.006884 125.29713 l
135.264431 125.15648 l
135.783623 125.871461 l
136.022807 125.638137 l
136.530306 126.351924 l
136.766342 126.182371 l
137.034577 126.313694 l
137.279081 126.789219 l
137.799736 126.677266 l
138.033715 127.182379 l
138.282112 127.292736 l
138.532325 127.16456 l
139.06497 127.91789 l
139.294939 127.671995 l
139.534362 127.879263 l
139.786074 128.294913 l
140.325315 128.192393 l
140.551416 128.719414 l
140.793709 128.836309 l
141.038515 128.722843 l
141.577183 129.476059 l
141.802805 129.256725 l
142.060589 129.364526 l
142.293122 129.801173 l
142.537421 129.849003 l
142.813873 129.753608 l
143.331783 130.528977 l
143.552962 130.310422 l
143.800098 130.479848 l
144.045816 130.892957 l
144.291709 130.912524 l
144.574265 130.816353 l
145.078707 131.593779 l
145.299782 131.398778 l
145.552975 131.555197 l
145.796112 131.972368 l
146.04223 132.012289 l
146.314941 131.916788 l
146.829387 132.709516 l
147.048095 132.513887 l
147.31422 132.591157 l
147.54102 133.023257 l
147.795955 133.15663 l
148.044906 133.049154 l
148.557028 133.754066 l
149.070393 133.604611 l
149.565116 134.378547 l
149.783718 134.207797 l
150.048215 134.319891 l
150.279641 134.738376 l
150.534862 134.868016 l
150.780717 134.766205 l
151.517935 135.40344 l
151.794411 135.331798 l
152.300787 136.131614 l
152.516503 135.972747 l
152.798417 135.955424 l
153.291203 136.71719 l
153.508232 136.559015 l
153.781314 136.631345 l
154.003019 137.051672 l
154.270834 137.275978 l
154.497666 137.153263 l
154.759197 137.304914 l
154.992419 137.704325 l
155.248903 137.844598 l
155.487649 137.753629 l
155.738322 137.966176 l
155.983144 138.355254 l
156.229565 138.431279 l
156.478734 138.360342 l
157.213205 139.034844 l
157.469112 138.974761 l
157.963527 139.641046 l
158.456506 139.598249 l
158.948989 140.267978 l
159.439929 140.230577 l
160.168394 140.91986 l
160.419922 140.870132 l
161.1544 141.56934 l
161.398114 141.515444 l
161.647981 141.731 l
161.887414 142.096578 l
162.144102 142.235739 l
162.377113 142.167222 l
162.641299 142.324411 l
163.142741 142.937846 l
163.361292 142.832311 l
163.646014 142.883967 l
164.145528 143.676746 l
164.350051 143.531185 l
164.622086 143.496512 l
165.090073 144.1962 l
165.569639 144.198002 l
166.321773 144.949115 l
166.545382 144.877636 l
166.831365 144.951395 l
167.334754 145.744212 l
167.536424 145.603305 l
167.793408 145.581339 l
168.256647 146.198755 l
168.512065 146.326542 l
168.746021 146.287874 l
169.023065 146.409827 l
169.538303 147.170727 l
169.739627 147.023545 l
169.99621 147.005161 l
170.449816 147.608305 l
170.71406 147.77175 l
170.943758 147.731006 l
171.23739 147.794726 l
171.725243 148.576693 l
172.160798 148.490536 l
172.643057 149.0058 l
172.947212 149.343273 l
173.154871 149.221581 l
173.428493 149.199755 l
173.859218 149.822847 l
174.124624 150.001615 l
174.668944 149.964502 l
175.10343 150.692953 l
175.86856 150.827345 l
176.349251 151.578813 l
176.77038 151.547842 l
177.063394 151.666278 l
177.578892 152.426414 l
177.988939 152.342866 l
178.269587 152.473858 l
178.790509 153.215333 l
179.200983 153.146243 l
179.490213 153.259398 l
179.985665 153.953484 l
180.726163 154.015201 l
181.174114 154.676125 l
181.61506 154.772849 l
181.970823 154.739782 l
182.371844 155.418866 l
182.632413 155.618153 l
183.133474 155.638001 l
183.902589 156.616511 l
184.304068 156.507441 l
184.572856 156.646618 l
185.059193 157.258935 l
185.493881 157.346837 l
185.840365 157.326802 l
186.231215 157.947293 l
186.548719 158.323405 l
186.957015 158.276071 l
187.232904 158.413396 l
187.704879 158.991084 l
188.149401 159.126811 l
188.465924 159.157929 l
189.212914 160.131989 l
189.599269 160.070476 l
189.942919 160.067455 l
190.323194 160.664128 l
190.664571 161.114534 l
191.04276 161.027974 l
191.384572 161.041349 l
191.763946 161.62895 l
192.105902 162.071661 l
192.482046 161.993232 l
192.829565 161.998558 l
193.201875 162.584956 l
193.546696 163.043731 l
193.916077 162.966241 l
194.244978 162.999767 l
194.943747 163.886296 l
195.64352 164.021882 l
196.588345 164.894113 l
197.050159 165.021484 l
197.511675 165.429665 l
198.042964 165.911347 l
198.801922 166.08846 l
199.533478 167.034076 l
199.898838 167.008166 l
200.407858 167.29889 l
201.156788 168.01232 l
201.959859 168.105465 l
202.304563 168.688021 l
202.789422 169.057194 l
203.573424 169.339673 l
204.26002 170.112289 l
205.22444 170.497595 l
205.94882 171.274754 l
206.911568 171.618072 l
207.568647 172.305247 l
208.236401 172.640992 l
208.671844 172.629992 l
209.198944 173.377351 l
209.531411 173.709419 l
209.897642 173.781102 l
210.425175 174.086411 l
211.447491 174.968537 l
211.594583 174.959265 l
211.791542 175.059346 l
212.208923 175.106444 l
212.739147 175.7705 l
213.167844 176.334635 l
213.483612 176.227477 l
213.67692 176.333105 l
214.06913 176.407592 l
214.397735 176.879088 l
215.315994 177.476484 l
216.260957 178.143095 l
217.439143 178.91125 l
217.866352 179.016692 l
218.387818 179.61035 l
218.799273 180.068404 l
219.314814 180.193932 l
219.877095 180.539521 l
220.578102 181.14595 l
221.458384 181.653791 l
221.994929 182.008369 l
223.02789 182.846155 l
223.334905 182.949037 l
224.502047 183.772574 l
225.031798 184.367293 l
225.69075 184.554183 l
226.093089 184.733401 l
226.606772 185.213765 l
227.532448 185.828518 l
231.058241 188.251253 l
236.937466 192.273606 l
241.549898 195.450682 l
242.684927 196.207582 l
243.046054 196.439969 l
243.597121 196.428468 l
244.16448 197.244482 l
245.939621 198.414891 l
246.623807 198.607848 l
247.103033 199.232781 l
248.544214 200.215931 l
250.429636 201.515044 l
250.786545 201.780007 l
251.564674 202.968406 l
252.00043 202.57224 l
253.03979 203.167449 l
253.354691 203.518058 l
253.848845 203.86984 l
254.536821 204.542064 l
254.935874 204.655002 l
255.301861 204.832989 l
256.841117 205.842631 l
257.238153 205.922762 l
257.761057 206.525669 l
258.394787 207.015238 l
258.868083 208.027672 l
259.109934 208.157802 l
259.556162 207.734161 l
260.582568 208.249112 l
261.232771 208.829999 l
263.479291 210.377334 l
275.131123 218.182128 l
275.328191 218.375218 l
276.170613 218.888884 l
276.918807 219.374908 l
277.33994 219.705272 l
280.08666 221.571835 l
280.762919 221.939495 l
281.16455 222.073386 l
281.325315 221.993776 l
281.585695 222.549305 l
285.928563 225.401335 l
286.307511 225.471349 l
286.543787 225.878478 l
286.667502 225.829027 l
287.049625 226.221127 l
287.73736 226.527969 l
288.023055 226.927905 l
288.16658 226.804325 l
288.508269 227.190471 l
289.648765 227.90379 l
290.768423 228.783037 l
290.935764 228.637992 l
291.563864 229.145738 l
292.506503 229.821736 l
293.177386 230.230918 l
293.49312 230.752944 l
293.641804 230.472346 l
294.302512 230.963513 l
294.629004 231.111413 l
294.936346 231.48959 l
295.102596 231.442353 l
295.468146 231.78738 l
296.554797 232.425835 l
297.627214 233.361357 l
298.458209 233.652866 l
298.857438 234.03617 l
299.571945 234.342227 l
299.929337 234.433053 l
300.148374 234.897031 l
300.272478 234.86617 l
301.03335 235.505003 l
301.711027 236.031714 l
301.920521 236.035433 l
302.326026 236.307363 l
302.886111 236.569804 l
303.894402 237.34731 l
304.241557 237.582605 l
304.644409 237.567002 l
304.99053 238.063022 l
305.811393 238.501982 l
306.865808 239.273643 l
307.339386 239.533059 l
307.603354 239.287439 l
307.737954 239.796067 l
308.140175 240.066934 l
308.499752 240.22721 l
308.837062 240.246681 l
309.282938 240.765744 l
309.810331 241.120584 l
310.460813 241.494829 l
310.732894 242.741983 l
310.840077 241.91571 l
311.005047 241.707152 l
311.356554 242.117167 l
311.684388 242.319331 l
312.21838 242.862533 l
312.463752 243.327409 l
312.590856 243.026339 l
312.784169 243.037645 l
313.35055 243.420232 l
314.38304 244.857302 l
314.527662 245.427831 l
314.754008 244.240477 l
315.776455 244.896771 l
316.05149 245.498512 l
316.206511 245.206447 l
316.637424 245.502125 l
317.061008 245.763288 l
317.605117 245.425578 l
318.16462 246.472018 l
318.733469 246.736806 l
319.046203 247.168586 l
319.456469 247.279828 l
319.913829 247.560203 l
320.754345 247.1365 l
321.095704 246.521268 l
321.22586 246.529067 l
321.434908 248.75808 l
321.597629 248.911995 l
321.737862 248.770905 l
322.939104 249.245805 l
323.179676 249.89218 l
323.321051 249.694191 l
323.557854 249.934703 l
324.480377 250.264509 l
324.811268 251.238979 l
324.965449 250.525633 l
325.311677 250.955731 l
325.966748 251.171711 l
326.270291 251.888633 l
326.436263 251.514015 l
326.842598 251.897294 l
327.390017 252.241686 l
328.130798 254.24246 l
328.378802 253.44105 l
328.497959 253.773935 l
328.778263 252.942343 l
328.991992 253.272477 l
329.580885 253.598079 l
330.206491 254.721463 l
330.504949 254.749406 l
330.648078 255.055223 l
330.924178 254.249516 l
331.130039 254.572919 l
331.745519 254.919884 l
332.741019 256.603762 l
332.87434 256.592854 l
333.13932 255.506734 l
333.510867 256.01627 l
333.870677 256.245119 l
334.382337 255.877677 l
334.616155 256.518542 l
334.767665 256.541186 l
334.946798 256.899328 l
335.481462 257.220314 l
335.874664 257.804361 l
336.158981 257.48484 l
336.325476 257.937249 l
336.507657 257.818796 l
337.057127 258.120651 l
337.482866 258.060117 l
337.80248 259.342952 l
337.945352 258.292045 l
338.478587 258.966997 l
339.032581 259.409244 l
339.429656 259.123598 l
339.646719 259.769607 l
339.817857 259.746774 l
340.359102 260.257068 l
340.667249 260.092296 l
340.879073 260.504 l
341.408905 260.692552 l
342.19898 261.313795 l
342.383439 261.321677 l
342.686572 261.551728 l
343.03668 262.121485 l
343.294307 261.672855 l
343.460744 262.149278 l
343.674459 262.07135 l
344.217986 262.479065 l
344.632076 262.113585 l
344.867299 262.979622 l
345.022732 262.740069 l
345.238606 263.139041 l
345.448066 263.154081 l
345.743323 263.366599 l
346.138405 263.969148 l
346.43019 263.407878 l
346.589371 264.186206 l
346.763692 263.979455 l
346.947324 264.023321 l
347.236311 264.227499 l
347.585735 264.836241 l
347.836425 264.353861 l
348.00361 264.838827 l
348.215485 264.748426 l
348.440919 264.981473 l
348.743194 265.113801 l
349.10262 264.920853 l
349.363982 265.855278 l
349.522757 265.38868 l
349.711179 265.691583 l
350.231219 266.083747 l
350.608894 265.966289 l
350.838051 266.313534 l
351.013173 266.315685 l
351.223375 266.625633 l
351.480254 266.709201 l
351.80798 266.680964 l
352.100743 267.474515 l
352.282233 266.978572 l
352.462165 267.312916 l
352.682535 267.391142 l
352.984284 267.707522 l
353.540818 267.772353 l
353.941184 268.155046 l
354.23296 268.397568 l
354.585217 268.134121 l
354.812261 268.802063 l
354.986084 268.599364 l
355.208184 268.963526 l
355.445324 268.955928 l
355.726762 269.145927 l
356.03578 269.721765 l
356.269471 269.192124 l
356.439589 269.661988 l
356.644782 269.672674 l
356.89715 269.915184 l
357.206174 269.844443 l
357.467772 270.194333 l
357.896642 270.411599 l
358.15142 270.638795 l
358.443192 270.469431 l
358.682017 271.03834 l
358.879609 270.862929 l
359.106138 271.170596 l
359.665777 271.216066 l
359.928186 271.967421 l
360.113814 271.541943 l
360.838509 272.315484 l
361.111358 271.878687 l
361.30094 272.546216 l
361.485452 272.393904 l
361.709935 272.624206 l
361.991143 272.580326 l
362.272968 273.069138 l
362.496763 272.914548 l
362.704093 273.212214 l
363.209894 273.320935 l
363.47996 273.883816 l
363.69408 273.480624 l
363.878446 273.82567 l
364.100536 273.874362 l
364.379896 274.230109 l
364.660467 273.93005 l
364.873678 274.548242 l
365.064794 274.330112 l
365.287439 274.667964 l
365.54209 274.597165 l
365.808338 274.955703 l
366.283941 275.078051 l
366.506425 275.301449 l
366.736816 275.297022 l
366.980724 275.658201 l
367.222116 275.452277 l
367.445383 275.928691 l
367.663746 275.765853 l
367.898287 276.140556 l
368.149582 276.021743 l
368.39775 276.39431 l
368.633263 276.370346 l
369.098112 276.714241 l
369.334932 276.71134 l
369.567616 277.066664 l
369.791771 276.932632 l
370.014663 277.289612 l
370.247107 277.174521 l
370.48749 277.610923 l
370.721878 277.375829 l
370.944746 277.852028 l
371.16739 277.661646 l
371.400035 278.082301 l
371.640117 277.905958 l
371.876739 278.344987 l
372.106173 278.180923 l
372.333828 278.56202 l
372.564923 278.461661 l
372.799161 278.773426 l
373.03338 278.767981 l
373.492781 279.057899 l
375.309138 280.097662 l
375.536413 280.105344 l
375.762518 280.34724 l
375.987123 280.352544 l
376.211581 280.572514 l
376.436914 280.605217 l
376.887763 280.856315 l
377.781523 281.3975 l
378.004354 281.423675 l
378.226129 281.678874 l
378.44704 281.606788 l
378.667165 281.965475 l
378.886698 281.788113 l
379.105514 282.242232 l
379.323945 281.983204 l
379.542187 282.49587 l
379.760861 282.202412 l
379.980178 282.727245 l
380.200373 282.439745 l
380.421055 282.946993 l
380.641943 282.690687 l
380.862654 283.149338 l
381.083248 282.963605 l
381.303736 283.32576 l
381.523962 283.262646 l
381.961745 283.59568 l
382.178359 283.57585 l
382.392889 283.948192 l
382.605353 283.684891 l
382.816085 284.240351 l
383.026785 283.890898 l
383.239494 284.422045 l
383.455991 284.174257 l
383.675542 284.58605 l
383.895119 284.47475 l
384.325906 284.855577 l
384.537806 284.740197 l
384.747312 285.235902 l
384.954483 284.855532 l
385.160823 285.449258 l
385.369763 285.157197 l
385.583758 285.543425 l
385.801432 285.504804 l
386.017697 285.61795 l
386.228911 285.919897 l
386.435396 285.626166 l
386.63861 286.254422 l
386.841296 285.855649 l
387.047223 286.317447 l
387.259093 286.257165 l
387.473923 286.343923 l
387.685278 286.688254 l
387.890513 286.340882 l
388.091178 287.005718 l
388.291359 286.620466 l
388.495605 286.994021 l
388.705611 287.082964 l
388.916258 286.958345 l
389.121618 287.526213 l
389.321645 287.041601 l
389.520001 287.637325 l
389.721851 287.506042 l
389.9288 287.536189 l
390.135464 288.000695 l
390.337091 287.533795 l
390.534518 288.212177 l
390.732618 287.960946 l
390.935119 288.065183 l
391.139435 288.503149 l
391.340068 288.027315 l
391.536452 288.723129 l
391.732921 288.473758 l
391.933036 288.529407 l
392.134327 289.042883 l
392.332083 288.514108 l
392.526641 289.167774 l
392.920978 288.922629 l
393.118546 289.593213 l
393.312694 289.047547 l
393.701429 289.713449 l
393.897548 289.285229 l
394.09051 290.054014 l
394.282077 289.715055 l
394.475251 289.744754 l
394.669146 290.371049 l
394.860623 289.774292 l
395.241877 290.508704 l
395.433478 290.003933 l
395.622653 290.784497 l
396.000796 290.368281 l
396.189691 291.161575 l
396.376931 290.644971 l
396.564061 290.796286 l
396.751686 291.432311 l
396.938021 290.778901 l
397.308911 291.642186 l
397.494022 290.977111 l
397.677861 291.636572 l
397.861532 291.832562 l
398.045018 291.216285 l
398.227412 291.997768 l
398.409431 292.032 l
398.487273 291.731295 l
398.487273 291.731295 l
stroke
grestore
1.000 0.498 0.055 setrgbcolor
gsave
357.12 266.112 57.6 38.016 clipbox
73.832727 91.754055 m
74.060077 91.707714 l
74.515498 91.363825 l
74.952232 92.029991 l
75.175069 90.760028 l
75.340222 91.079526 l
75.59868 90.949141 l
76.566873 90.778989 l
77.122035 85.836644 l
77.271762 89.678874 l
77.399082 89.985569 l
77.742316 90.221741 l
78.008334 89.496864 l
78.2203 89.806302 l
78.454627 89.530164 l
78.755961 89.541809 l
79.060204 89.154447 l
79.308905 89.282303 l
79.533754 89.048408 l
80.078598 88.826892 l
80.358583 88.654311 l
80.603682 88.638432 l
80.842047 88.402118 l
81.105236 88.431251 l
81.386761 88.063825 l
81.654101 88.281277 l
81.901408 87.792586 l
82.150551 88.020734 l
82.416875 87.539563 l
82.689426 87.846616 l
82.949559 87.243922 l
83.199319 87.567433 l
83.453253 87.086786 l
83.71732 87.287264 l
83.981988 86.870533 l
84.238405 86.986669 l
84.490953 86.727539 l
85.012456 86.571001 l
85.275508 86.334499 l
85.533981 86.419327 l
85.791553 86.027545 l
86.053182 86.246922 l
86.317136 85.723246 l
86.578423 86.052945 l
86.835254 85.493191 l
87.090851 85.768674 l
87.348083 85.335296 l
87.606427 85.449815 l
87.864283 85.201425 l
88.38116 85.076851 l
88.643044 84.769177 l
88.906212 84.945632 l
89.168383 84.443962 l
89.428893 84.76703 l
89.687276 84.207982 l
89.943402 84.485049 l
90.197957 84.078869 l
90.453076 84.137302 l
90.971878 83.782445 l
91.234516 83.869407 l
91.497565 83.432078 l
91.760437 83.730824 l
92.020933 83.158821 l
92.27674 83.466581 l
92.528465 83.048869 l
92.781002 83.100033 l
93.302575 82.733294 l
93.567534 82.877063 l
93.831218 82.377564 l
94.092732 82.72078 l
94.349285 82.170484 l
94.599844 82.383166 l
95.106747 82.006633 l
95.372478 82.042191 l
95.640844 81.619302 l
95.905792 81.94407 l
96.163706 81.35851 l
96.413705 81.628115 l
96.660874 81.322973 l
97.180481 81.259729 l
97.451649 80.840188 l
97.718996 81.180093 l
97.975681 80.586157 l
98.22126 80.830452 l
98.723061 80.438741 l
98.995336 80.531209 l
99.269907 80.019518 l
99.533123 80.420847 l
99.77931 79.892081 l
100.01825 79.988432 l
100.269754 79.890936 l
100.542657 79.596378 l
100.823301 79.865188 l
101.089521 79.22044 l
101.332506 79.555766 l
101.818163 79.14125 l
102.098545 79.244235 l
102.384535 78.675023 l
102.645592 79.130252 l
102.877423 78.675302 l
103.37511 78.657904 l
103.671304 78.195383 l
103.952894 78.65973 l
104.191004 78.06963 l
104.661125 78.108497 l
104.961512 77.704284 l
105.260578 78.157234 l
105.503617 77.504271 l
105.956839 77.58181 l
106.266132 77.175035 l
106.576397 77.647956 l
106.813534 77.023188 l
107.264821 77.069338 l
107.595884 76.593274 l
107.898154 77.075423 l
108.114311 76.640725 l
108.318225 76.489052 l
108.60039 76.575764 l
108.942672 76.006057 l
109.202748 76.316239 l
109.401574 76.220424 l
109.636538 75.943514 l
109.966839 76.116259 l
110.260252 75.651417 l
110.475124 75.610508 l
110.694454 75.72619 l
110.995916 75.332963 l
111.295034 75.529149 l
111.524726 75.386545 l
111.74509 75.096721 l
112.03147 75.274144 l
112.325853 74.846414 l
112.560339 74.821553 l
112.784204 74.934213 l
113.06765 74.524298 l
113.358113 74.731081 l
113.591481 74.579303 l
113.817141 74.290828 l
114.10399 74.488693 l
114.390212 74.076059 l
114.620164 74.016215 l
114.849691 74.151108 l
115.142099 73.722595 l
115.419145 73.880431 l
115.644567 73.832537 l
115.883096 73.491282 l
116.180874 73.702515 l
116.665944 73.208342 l
116.921315 73.397412 l
117.214575 72.983635 l
117.460523 72.972828 l
117.687366 73.094653 l
117.966013 72.670626 l
118.240867 72.81713 l
118.470474 72.781395 l
118.714346 72.42196 l
119.008057 72.635847 l
119.483598 72.15343 l
119.757277 72.366262 l
120.265044 71.88363 l
120.510594 72.075743 l
120.800268 71.65984 l
121.04599 71.651987 l
121.27437 71.784438 l
121.557563 71.357166 l
122.047246 71.497982 l
122.309928 71.093991 l
122.588275 71.244212 l
122.822175 71.203986 l
123.067114 70.832478 l
123.354141 71.026809 l
123.595911 70.898528 l
123.8285 70.571537 l
124.116657 70.78599 l
124.594459 70.304497 l
124.876713 70.528601 l
125.360741 70.037738 l
125.636853 70.266508 l
126.125869 69.773084 l
126.396844 70.001625 l
126.889918 69.509046 l
127.157732 69.737949 l
127.652192 69.246296 l
127.919673 69.476118 l
128.412903 68.984223 l
128.682848 69.215905 l
129.172267 68.723219 l
129.447572 68.956024 l
129.931018 68.46372 l
130.213483 68.691581 l
130.690686 68.205234 l
130.978331 68.413016 l
131.221223 68.275974 l
131.45329 67.945191 l
131.737597 68.113672 l
131.974937 68.05744 l
132.220265 67.679175 l
132.723992 67.826311 l
132.990936 67.41267 l
133.474311 67.58625 l
133.761351 67.17598 l
134.003599 67.17245 l
134.233452 67.344227 l
134.75235 66.879835 l
135.006884 67.116052 l
135.494305 66.632788 l
135.783623 66.861732 l
136.022807 66.712198 l
136.251759 66.386966 l
136.766342 66.527195 l
137.034577 66.104525 l
137.507258 66.289728 l
138.033715 65.828126 l
138.282112 66.067004 l
138.767029 65.596126 l
139.06497 65.793866 l
139.294939 65.729759 l
139.534362 65.353555 l
140.026276 65.512027 l
140.325315 65.129537 l
140.551416 65.040153 l
140.793709 65.274385 l
141.281846 64.818669 l
141.802805 64.983902 l
142.060589 64.579339 l
142.293122 64.580899 l
142.537421 64.744506 l
143.046143 64.272342 l
143.331783 64.50376 l
143.552962 64.430853 l
143.800098 64.071116 l
144.045816 64.080301 l
144.291709 64.23141 l
144.799263 63.752853 l
145.078707 63.981235 l
145.299782 63.911449 l
145.552975 63.554227 l
145.796112 63.556069 l
146.04223 63.718873 l
146.542963 63.248955 l
146.829387 63.437011 l
147.048095 63.427929 l
147.31422 63.048827 l
147.54102 63.015621 l
147.795955 63.208529 l
148.044906 63.052611 l
148.286266 62.757796 l
148.78472 62.940217 l
149.28859 62.470952 l
149.565116 62.690258 l
149.783718 62.635018 l
150.048215 62.277961 l
150.279641 62.251676 l
150.534862 62.442636 l
150.780717 62.293819 l
151.023165 61.998156 l
151.517935 62.178197 l
152.016936 61.718264 l
152.516503 61.910503 l
153.012797 61.458506 l
153.291203 61.666264 l
153.508232 61.623607 l
153.781314 61.268425 l
154.003019 61.218607 l
154.270834 61.423819 l
154.497666 61.333693 l
154.759197 61.000362 l
154.992419 60.985125 l
155.248903 61.170714 l
155.487649 61.046238 l
155.738322 60.741864 l
155.983144 60.752478 l
156.229565 60.916412 l
156.478734 60.764903 l
156.720637 60.486785 l
156.974325 60.517588 l
157.213205 60.663805 l
157.963527 60.277397 l
158.198268 60.413163 l
158.948989 60.030218 l
159.183391 60.16438 l
159.930546 59.777366 l
160.168394 59.917701 l
160.909329 59.521475 l
161.1544 59.673572 l
161.398114 59.542669 l
161.647981 59.26294 l
161.887414 59.26372 l
162.144102 59.432058 l
162.377113 59.329377 l
162.641299 59.025838 l
162.868149 59.001782 l
163.142741 59.189759 l
163.361292 59.126966 l
163.646014 58.800193 l
163.85647 58.729877 l
164.350051 58.927257 l
164.833465 58.503199 l
165.569639 58.545249 l
165.819321 58.28511 l
166.055932 58.280645 l
166.321773 58.44865 l
166.545382 58.373459 l
166.831365 58.060962 l
167.042544 57.999003 l
167.536424 58.200052 l
168.011684 57.797061 l
168.256647 57.814029 l
168.512065 57.952418 l
168.746021 57.863457 l
169.023065 57.569915 l
169.238647 57.527586 l
169.739627 57.718489 l
170.210309 57.319506 l
170.449816 57.332309 l
170.71406 57.469063 l
170.943758 57.398574 l
171.443663 57.030966 l
171.927843 57.231413 l
172.643057 56.837335 l
172.947212 57.00315 l
173.154871 56.988676 l
173.630582 56.590858 l
174.351276 56.693145 l
174.868459 56.297271 l
175.324339 56.494308 l
175.552732 56.419452 l
176.082103 56.07143 l
176.55055 56.274057 l
177.283144 55.866609 l
177.778067 56.060759 l
178.488749 55.648877 l
178.993988 55.831721 l
179.705652 55.413227 l
180.406576 55.490255 l
180.935964 55.156697 l
181.61506 55.276718 l
182.175264 54.89229 l
182.632413 55.103695 l
183.133474 54.95409 l
183.356564 54.761249 l
183.902589 54.879054 l
184.104108 54.943194 l
184.783867 54.537425 l
185.493881 54.607219 l
186.231215 54.325873 l
186.747968 54.470674 l
187.443401 54.098663 l
188.149401 54.177939 l
188.874324 53.90205 l
189.599269 53.944443 l
190.323194 53.68446 l
190.859623 53.841788 l
191.579835 53.408085 l
192.300107 53.626184 l
193.023741 53.198139 l
193.741392 53.4164 l
194.448447 53.029247 l
195.34389 53.110255 l
196.347164 52.875266 l
196.784559 52.923195 l
197.756829 52.681397 l
198.245619 52.755651 l
199.183922 52.486639 l
199.898838 52.529706 l
200.865302 52.305216 l
201.356823 52.3771 l
202.304563 52.097352 l
203.243612 52.11506 l
203.95202 51.946432 l
204.909378 51.930088 l
205.619048 51.779106 l
206.571415 51.760428 l
207.291247 51.610361 l
208.236401 51.604456 l
209.198944 51.454298 l
209.897642 51.466868 l
211.235351 51.282296 l
211.594583 51.34712 l
212.543172 51.128472 l
213.483612 51.207037 l
214.397735 51.003638 l
215.315994 51.036824 l
216.499416 50.898361 l
217.439143 50.87472 l
218.799273 50.778368 l
219.127018 50.81111 l
220.039185 50.669028 l
221.458384 50.648143 l
222.815937 50.544888 l
223.160633 50.603417 l
224.268644 50.488058 l
230.508156 50.325619 l
231.695616 50.297208 l
232.905927 50.292704 l
233.623868 50.276651 l
243.046054 50.363296 l
243.597121 50.589692 l
243.891285 50.270606 l
244.363338 50.374011 l
245.939621 50.460131 l
246.379013 50.688722 l
246.623807 50.605169 l
246.773283 50.403214 l
247.27559 50.448404 l
249.634674 50.567083 l
250.183424 50.572508 l
250.786545 50.573055 l
251.564674 50.112 l
251.71597 50.707624 l
251.871996 50.813776 l
252.345352 50.696304 l
255.541902 50.896535 l
256.669839 51.001678 l
257.420302 50.92551 l
257.999552 51.031545 l
258.394787 50.994047 l
258.868083 50.310584 l
259.109934 50.513525 l
259.380045 51.325447 l
259.904492 51.198324 l
260.785676 51.264883 l
266.302629 51.75639 l
267.656075 52.000712 l
268.20935 52.220221 l
268.547507 51.964309 l
270.835179 52.239492 l
271.690657 52.456266 l
271.999136 52.69167 l
272.919855 52.463461 l
274.466876 52.806577 l
274.788202 53.131839 l
275.131123 52.765189 l
275.913932 52.901193 l
276.170613 52.962477 l
276.753721 53.279347 l
277.074925 52.999739 l
277.919959 53.247507 l
278.253734 53.621181 l
278.592884 53.236271 l
279.148605 53.332338 l
279.691356 53.568029 l
280.321246 53.483263 l
280.762919 53.712817 l
281.16455 54.847821 l
281.425303 53.563041 l
281.585695 53.54496 l
282.569293 53.7882 l
283.151828 53.98569 l
283.461818 54.235042 l
284.043676 54.040628 l
284.382924 54.148634 l
284.837825 54.892227 l
285.343441 54.232541 l
285.928563 54.401114 l
286.307511 54.935221 l
286.543787 54.820237 l
286.832075 54.460618 l
287.368427 54.608277 l
288.023055 55.227367 l
288.309905 54.702512 l
289.129533 54.990378 l
289.454931 55.385198 l
289.787015 54.990063 l
290.015794 55.041004 l
290.400538 55.250327 l
290.768423 55.936901 l
291.059039 55.196562 l
291.563864 55.315439 l
291.859296 55.485547 l
292.167241 55.791368 l
292.506503 55.476105 l
292.754489 55.541743 l
293.177386 55.848014 l
293.49312 56.230587 l
293.790847 55.717841 l
294.302512 55.824282 l
294.629004 56.059295 l
294.936346 56.444178 l
295.247727 55.970106 l
295.815088 56.185459 l
296.239172 56.99956 l
296.554797 56.293644 l
298.651279 56.614578 l
299.571945 56.909654 l
299.929337 57.539705 l
300.272478 57.079447 l
301.38689 57.159272 l
301.711027 56.85221 l
302.062429 57.348186 l
302.631627 57.42168 l
303.431722 57.797258 l
304.241557 57.765832 l
304.644409 57.407485 l
304.99053 57.984325 l
305.574694 58.104561 l
306.102854 58.39457 l
306.865808 58.413388 l
307.339386 58.077888 l
307.962039 58.646434 l
309.094782 59.217342 l
309.282938 59.036398 l
309.810331 59.155421 l
310.460813 60.247315 l
310.732894 59.940032 l
310.840077 60.104238 l
311.15088 59.406017 l
311.684388 59.623614 l
312.21838 60.430486 l
312.463752 59.85451 l
312.590856 60.059561 l
312.784169 59.890134 l
313.986123 60.026836 l
314.38304 57.595441 l
314.621653 60.84518 l
314.754008 60.813321 l
314.937614 60.429448 l
315.09636 60.415802 l
315.393634 60.537671 l
315.776455 60.936104 l
316.637424 60.832888 l
317.061008 60.900565 l
317.605117 60.585104 l
317.841358 61.437546 l
317.996303 61.11136 l
318.733469 61.48455 l
319.046203 61.743092 l
319.252535 61.523741 l
319.913829 61.693679 l
320.754345 61.741433 l
321.095704 64.89345 l
321.315363 61.078328 l
321.434908 61.349239 l
321.737862 62.33298 l
321.954044 62.249113 l
322.590752 62.423833 l
322.939104 63.003947 l
323.179676 62.742035 l
323.321051 62.794738 l
323.777684 62.748577 l
324.090189 62.847667 l
324.480377 63.216066 l
324.811268 63.754529 l
325.138337 63.111479 l
325.632478 63.257161 l
326.270291 63.938777 l
326.436263 63.672387 l
326.632835 63.57262 l
327.390017 63.841389 l
328.130798 64.966829 l
328.378802 62.859928 l
328.630048 64.588278 l
328.778263 64.380346 l
328.991992 64.287039 l
329.580885 64.479954 l
330.206491 64.887042 l
330.504949 63.254066 l
330.768835 65.262067 l
330.924178 64.99364 l
331.130039 64.914026 l
331.745519 65.133229 l
332.459605 66.059933 l
332.741019 63.995729 l
332.990461 66.119419 l
333.13932 65.700074 l
333.325665 65.532911 l
333.510867 65.65581 l
333.870677 65.710483 l
334.382337 65.290527 l
334.616155 66.461751 l
334.767665 66.018197 l
335.170387 66.179131 l
335.481462 66.326801 l
335.874664 66.360493 l
336.158981 65.891499 l
336.325476 66.490475 l
336.507657 66.654347 l
337.057127 66.738078 l
337.482866 67.161811 l
337.80248 68.005173 l
338.099351 66.958904 l
339.032581 67.333629 l
339.429656 67.101338 l
339.646719 67.82707 l
339.817857 67.677581 l
340.074516 67.827263 l
340.667249 67.713556 l
340.879073 68.113663 l
341.091594 68.061812 l
341.408905 68.213137 l
341.783956 68.786323 l
342.027587 68.178971 l
342.19898 68.582072 l
342.383439 68.522829 l
342.686572 68.71734 l
343.03668 68.689915 l
343.294307 68.497929 l
343.460744 68.80935 l
343.898579 69.051825 l
344.632076 69.038989 l
344.867299 69.766692 l
345.022732 69.505265 l
345.448066 69.567954 l
345.743323 69.730312 l
346.138405 69.746966 l
346.43019 69.221682 l
346.763692 70.168408 l
346.947324 70.071321 l
347.236311 70.286086 l
347.585735 70.308422 l
347.836425 70.094751 l
348.215485 70.559054 l
348.743194 70.635793 l
349.10262 70.941932 l
349.363982 71.31587 l
349.711179 70.978096 l
349.916769 71.177565 l
350.231219 71.221884 l
350.608894 70.893061 l
350.838051 71.829573 l
351.013173 71.469441 l
351.223375 71.645089 l
351.480254 71.633117 l
352.100743 72.290025 l
352.462165 71.979425 l
352.682535 72.185115 l
352.984284 72.276333 l
353.301464 72.026133 l
353.540818 72.719893 l
353.737943 72.413726 l
353.941184 72.657047 l
354.585217 72.549983 l
354.812261 73.21377 l
354.986084 73.012149 l
355.445324 73.114884 l
355.726762 73.409131 l
356.03578 73.299789 l
356.439589 73.415685 l
356.644782 73.682266 l
357.206174 73.691095 l
357.467772 74.230916 l
357.683714 73.834922 l
357.896642 74.187603 l
358.15142 74.102136 l
358.443192 74.249094 l
358.682017 74.547624 l
358.879609 74.438179 l
359.106138 74.596845 l
359.371747 74.535387 l
359.665777 74.964328 l
359.928186 74.871223 l
360.113814 75.085011 l
360.294174 74.918584 l
360.533329 75.192121 l
361.111358 75.112806 l
361.485452 75.564408 l
361.709935 75.505091 l
361.991143 75.66571 l
362.272968 76.018766 l
362.496763 75.67337 l
362.704093 76.052001 l
362.941189 75.927526 l
363.209894 76.329133 l
363.47996 76.152221 l
363.69408 76.423899 l
363.878446 76.305679 l
364.100536 76.583672 l
364.660467 76.562539 l
364.873678 76.903872 l
365.54209 77.027793 l
365.808338 77.373661 l
366.054775 77.041044 l
366.283941 77.590198 l
366.506425 77.304485 l
366.736816 77.696632 l
366.980724 77.557359 l
367.222116 77.803176 l
367.663746 77.958223 l
368.149582 78.04443 l
368.39775 78.414175 l
368.633263 78.131545 l
368.864158 78.627389 l
369.098112 78.327666 l
369.334932 78.811403 l
369.567616 78.553627 l
369.791771 78.94627 l
370.014663 78.788842 l
370.247107 79.088314 l
370.48749 79.045786 l
371.16739 79.386897 l
371.876739 79.791905 l
372.106173 79.641702 l
372.333828 80.00472 l
372.564923 79.809507 l
372.799161 80.24818 l
373.03338 79.94978 l
373.264705 80.484996 l
373.492781 80.130173 l
373.719387 80.672219 l
373.946886 80.32862 l
374.175668 80.866556 l
374.404314 80.517981 l
374.631177 81.06038 l
374.856588 80.716458 l
375.082207 81.245693 l
375.309138 80.910756 l
375.536413 81.444202 l
375.762518 81.099844 l
375.987123 81.638681 l
376.211581 81.292534 l
376.436914 81.835257 l
376.662752 81.478022 l
376.887763 82.039176 l
377.111552 81.665623 l
377.334726 82.233647 l
377.558122 81.858613 l
377.781523 82.427294 l
378.004354 82.055146 l
378.226129 82.6086 l
378.44704 82.27108 l
378.667165 82.764617 l
378.886698 82.510919 l
379.105514 82.895529 l
379.323945 82.772746 l
379.542187 83.009502 l
379.980178 83.127004 l
380.200373 83.305073 l
380.421055 83.254543 l
380.641943 83.564697 l
380.862654 83.384372 l
381.083248 83.822959 l
381.303736 83.519663 l
381.523962 84.070961 l
381.743495 83.673149 l
381.961745 84.28611 l
382.178359 83.878049 l
382.392889 84.420408 l
382.605353 84.17847 l
382.816085 84.453572 l
383.026785 84.539352 l
383.239494 84.487569 l
383.455991 84.853339 l
383.675542 84.585241 l
383.895119 85.136782 l
384.111983 84.713122 l
384.325906 85.35385 l
384.537806 84.950671 l
384.747312 85.416169 l
385.160823 85.371198 l
385.369763 85.72709 l
385.583758 85.424356 l
385.801432 86.01916 l
386.017697 85.559354 l
386.228911 86.200515 l
386.435396 85.88545 l
386.841296 86.359714 l
387.047223 86.094408 l
387.259093 86.682494 l
387.473923 86.225993 l
387.685278 86.860825 l
387.890513 86.573745 l
388.091178 86.749317 l
388.291359 87.082692 l
388.495605 86.714238 l
388.705611 87.365302 l
388.916258 86.922672 l
389.121618 87.402221 l
389.321645 87.421557 l
389.520001 87.233912 l
389.721851 87.839438 l
389.9288 87.359452 l
390.135464 87.942748 l
390.534518 87.749577 l
390.732618 88.312074 l
390.935119 87.811132 l
391.139435 88.424182 l
391.536452 88.205727 l
391.732921 88.798083 l
391.933036 88.275097 l
392.134327 88.853733 l
392.332083 88.810437 l
392.526641 88.598847 l
392.722306 89.288052 l
392.920978 88.779686 l
393.312694 89.423755 l
393.505881 88.976167 l
393.701429 89.72061 l
393.897548 89.391161 l
394.09051 89.4324 l
394.282077 90.036718 l
394.475251 89.45243 l
394.669146 89.987923 l
394.860623 90.143993 l
395.050598 89.683222 l
395.241877 90.463261 l
395.622653 90.074857 l
395.81118 90.810429 l
396.000796 90.24129 l
396.376931 91.038034 l
396.564061 90.392528 l
396.751686 90.995073 l
396.938021 91.194801 l
397.123315 90.620953 l
397.308911 91.403916 l
397.494022 91.336366 l
397.677861 90.900126 l
397.861532 91.763084 l
398.227412 91.195901 l
398.487273 92.132349 l
398.487273 92.132349 l
stroke
grestore
0.800 setlinewidth
0 setlinejoin
0.000 setgray
gsave
57.6 38.016 m
57.6 304.128 l
stroke
grestore
gsave
414.72 38.016 m
414.72 304.128 l
stroke
grestore
gsave
57.6 38.016 m
414.72 38.016 l
stroke
grestore
gsave
57.6 304.128 m
414.72 304.128 l
stroke
grestore

end
showpage
