%!PS-Adobe-3.0 EPSF-3.0
%%Title: PIController_stiff.eps
%%Creator: Matplotlib v3.4.2, https://matplotlib.org/
%%CreationDate: Fri Jul 23 14:48:41 2021
%%Orientation: portrait
%%BoundingBox: 75 223 537 569
%%HiResBoundingBox: 75.600000 223.200000 536.400000 568.800000
%%EndComments
%%BeginProlog
/mpldict 11 dict def
mpldict begin
/_d { bind def } bind def
/m { moveto } _d
/l { lineto } _d
/r { rlineto } _d
/c { curveto } _d
/cl { closepath } _d
/ce { closepath eofill } _d
/box {
      m
      1 index 0 r
      0 exch r
      neg 0 r
      cl
    } _d
/clipbox {
      box
      clip
      newpath
    } _d
/sc { setcachedevice } _d
%!PS-Adobe-3.0 Resource-Font
%%Creator: Converted from TrueType to Type 3 by Matplotlib.
10 dict begin
/FontName /DejaVuSans def
/PaintType 0 def
/FontMatrix [0.00048828125 0 0 0.00048828125 0 0] def
/FontBBox [-2090 -948 3673 2524] def
/FontType 3 def
/Encoding [/period /zero /one /two /minus /four /t /six /five /eight /y] def
/CharStrings 12 dict dup begin
/.notdef 0 def
/period{651 0 219 0 430 254 sc
219 254 m
430 254 l
430 0 l
219 0 l
219 254 l

ce} _d
/zero{1303 0 135 -29 1167 1520 sc
651 1360 m
547 1360 469 1309 416 1206 c
364 1104 338 950 338 745 c
338 540 364 387 416 284 c
469 182 547 131 651 131 c
756 131 834 182 886 284 c
939 387 965 540 965 745 c
965 950 939 1104 886 1206 c
834 1309 756 1360 651 1360 c

651 1520 m
818 1520 946 1454 1034 1321 c
1123 1189 1167 997 1167 745 c
1167 494 1123 302 1034 169 c
946 37 818 -29 651 -29 c
484 -29 356 37 267 169 c
179 302 135 494 135 745 c
135 997 179 1189 267 1321 c
356 1454 484 1520 651 1520 c

ce} _d
/one{1303 0 225 0 1114 1493 sc
254 170 m
584 170 l
584 1309 l
225 1237 l
225 1421 l
582 1493 l
784 1493 l
784 170 l
1114 170 l
1114 0 l
254 0 l
254 170 l

ce} _d
/two{1303 0 150 0 1098 1520 sc
393 170 m
1098 170 l
1098 0 l
150 0 l
150 170 l
227 249 331 356 463 489 c
596 623 679 709 713 748 c
778 821 823 882 848 932 c
874 983 887 1032 887 1081 c
887 1160 859 1225 803 1275 c
748 1325 675 1350 586 1350 c
523 1350 456 1339 385 1317 c
315 1295 240 1262 160 1217 c
160 1421 l
241 1454 317 1478 388 1495 c
459 1512 523 1520 582 1520 c
737 1520 860 1481 952 1404 c
1044 1327 1090 1223 1090 1094 c
1090 1033 1078 974 1055 919 c
1032 864 991 800 930 725 c
913 706 860 650 771 557 c
682 465 556 336 393 170 c

ce} _d
/minus{1716 0 217 557 1499 727 sc
217 727 m
1499 727 l
1499 557 l
217 557 l
217 727 l

ce} _d
/four{1303 0 100 0 1188 1493 sc
774 1317 m
264 520 l
774 520 l
774 1317 l

721 1493 m
975 1493 l
975 520 l
1188 520 l
1188 352 l
975 352 l
975 0 l
774 0 l
774 352 l
100 352 l
100 547 l
721 1493 l

ce} _d
/t{803 0 55 0 754 1438 sc
375 1438 m
375 1120 l
754 1120 l
754 977 l
375 977 l
375 369 l
375 278 387 219 412 193 c
437 167 488 154 565 154 c
754 154 l
754 0 l
565 0 l
423 0 325 26 271 79 c
217 132 190 229 190 369 c
190 977 l
55 977 l
55 1120 l
190 1120 l
190 1438 l
375 1438 l

ce} _d
/six{1303 0 143 -29 1174 1520 sc
676 827 m
585 827 513 796 460 734 c
407 672 381 587 381 479 c
381 372 407 287 460 224 c
513 162 585 131 676 131 c
767 131 838 162 891 224 c
944 287 971 372 971 479 c
971 587 944 672 891 734 c
838 796 767 827 676 827 c

1077 1460 m
1077 1276 l
1026 1300 975 1318 923 1331 c
872 1344 821 1350 770 1350 c
637 1350 535 1305 464 1215 c
394 1125 354 989 344 807 c
383 865 433 909 492 940 c
551 971 617 987 688 987 c
838 987 956 941 1043 850 c
1130 759 1174 636 1174 479 c
1174 326 1129 203 1038 110 c
947 17 827 -29 676 -29 c
503 -29 371 37 280 169 c
189 302 143 494 143 745 c
143 981 199 1169 311 1309 c
423 1450 573 1520 762 1520 c
813 1520 864 1515 915 1505 c
967 1495 1021 1480 1077 1460 c

ce} _d
/five{1303 0 158 -29 1124 1493 sc
221 1493 m
1014 1493 l
1014 1323 l
406 1323 l
406 957 l
435 967 465 974 494 979 c
523 984 553 987 582 987 c
749 987 881 941 978 850 c
1075 759 1124 635 1124 479 c
1124 318 1074 193 974 104 c
874 15 733 -29 551 -29 c
488 -29 424 -24 359 -13 c
294 -2 227 14 158 35 c
158 238 l
218 205 280 181 344 165 c
408 149 476 141 547 141 c
662 141 754 171 821 232 c
888 293 922 375 922 479 c
922 583 888 665 821 726 c
754 787 662 817 547 817 c
493 817 439 811 385 799 c
332 787 277 768 221 743 c
221 1493 l

ce} _d
/eight{1303 0 139 -29 1163 1520 sc
651 709 m
555 709 479 683 424 632 c
369 581 342 510 342 420 c
342 330 369 259 424 208 c
479 157 555 131 651 131 c
747 131 823 157 878 208 c
933 260 961 331 961 420 c
961 510 933 581 878 632 c
823 683 748 709 651 709 c

449 795 m
362 816 295 857 246 916 c
198 975 174 1048 174 1133 c
174 1252 216 1347 301 1416 c
386 1485 503 1520 651 1520 c
800 1520 916 1485 1001 1416 c
1086 1347 1128 1252 1128 1133 c
1128 1048 1104 975 1055 916 c
1007 857 940 816 854 795 c
951 772 1027 728 1081 662 c
1136 596 1163 515 1163 420 c
1163 275 1119 164 1030 87 c
942 10 816 -29 651 -29 c
486 -29 360 10 271 87 c
183 164 139 275 139 420 c
139 515 166 596 221 662 c
276 728 352 772 449 795 c

375 1114 m
375 1037 399 976 447 933 c
496 890 564 868 651 868 c
738 868 805 890 854 933 c
903 976 928 1037 928 1114 c
928 1191 903 1252 854 1295 c
805 1338 738 1360 651 1360 c
564 1360 496 1338 447 1295 c
399 1252 375 1191 375 1114 c

ce} _d
/y{1212 0 61 -426 1151 1120 sc
659 -104 m
607 -237 556 -324 507 -365 c
458 -406 392 -426 309 -426 c
162 -426 l
162 -272 l
270 -272 l
321 -272 360 -260 388 -236 c
416 -212 447 -155 481 -66 c
514 18 l
61 1120 l
256 1120 l
606 244 l
956 1120 l
1151 1120 l
659 -104 l

ce} _d
end readonly def

/BuildGlyph {
 exch begin
 CharStrings exch
 2 copy known not {pop /.notdef} if
 true 3 1 roll get exec
 end
} _d

/BuildChar {
 1 index /Encoding get exch get
 1 index /BuildGlyph get exec
} _d

FontName currentdict end definefont pop
end
%%EndProlog
mpldict begin
75.6 223.2 translate
460.8 345.6 0 0 clipbox
gsave
0 0 m
460.8 0 l
460.8 345.6 l
0 345.6 l
cl
1.000 setgray
fill
grestore
gsave
57.6 38.016 m
414.72 38.016 l
414.72 304.128 l
57.6 304.128 l
cl
1.000 setgray
fill
grestore
0.800 setlinewidth
1 setlinejoin
0 setlinecap
[] 0 setdash
0.000 setgray
gsave
/o {
gsave
newpath
translate
0.8 setlinewidth
1 setlinejoin

0 setlinecap

0 0 m
0 -3.5 l

gsave
0.000 setgray
fill
grestore
stroke
grestore
} bind def
73.8327 38.016 o
grestore
/DejaVuSans 10.000 selectfont
gsave

65.879602 23.422250 translate
0.000000 rotate
0.000000 0 m /zero glyphshow
6.362305 0 m /period glyphshow
9.541016 0 m /zero glyphshow
grestore
gsave
/o {
gsave
newpath
translate
0.8 setlinewidth
1 setlinejoin

0 setlinecap

0 0 m
0 -3.5 l

gsave
0.000 setgray
fill
grestore
stroke
grestore
} bind def
115.169 38.016 o
grestore
gsave

107.215903 23.422250 translate
0.000000 rotate
0.000000 0 m /zero glyphshow
6.362305 0 m /period glyphshow
9.541016 0 m /two glyphshow
grestore
gsave
/o {
gsave
newpath
translate
0.8 setlinewidth
1 setlinejoin

0 setlinecap

0 0 m
0 -3.5 l

gsave
0.000 setgray
fill
grestore
stroke
grestore
} bind def
156.505 38.016 o
grestore
gsave

148.552203 23.422250 translate
0.000000 rotate
0.000000 0 m /zero glyphshow
6.362305 0 m /period glyphshow
9.541016 0 m /four glyphshow
grestore
gsave
/o {
gsave
newpath
translate
0.8 setlinewidth
1 setlinejoin

0 setlinecap

0 0 m
0 -3.5 l

gsave
0.000 setgray
fill
grestore
stroke
grestore
} bind def
197.842 38.016 o
grestore
gsave

189.888504 23.422250 translate
0.000000 rotate
0.000000 0 m /zero glyphshow
6.362305 0 m /period glyphshow
9.541016 0 m /six glyphshow
grestore
gsave
/o {
gsave
newpath
translate
0.8 setlinewidth
1 setlinejoin

0 setlinecap

0 0 m
0 -3.5 l

gsave
0.000 setgray
fill
grestore
stroke
grestore
} bind def
239.178 38.016 o
grestore
gsave

231.224805 23.422250 translate
0.000000 rotate
0.000000 0 m /zero glyphshow
6.362305 0 m /period glyphshow
9.541016 0 m /eight glyphshow
grestore
gsave
/o {
gsave
newpath
translate
0.8 setlinewidth
1 setlinejoin

0 setlinecap

0 0 m
0 -3.5 l

gsave
0.000 setgray
fill
grestore
stroke
grestore
} bind def
280.514 38.016 o
grestore
gsave

272.561105 23.422250 translate
0.000000 rotate
0.000000 0 m /one glyphshow
6.362305 0 m /period glyphshow
9.541016 0 m /zero glyphshow
grestore
gsave
/o {
gsave
newpath
translate
0.8 setlinewidth
1 setlinejoin

0 setlinecap

0 0 m
0 -3.5 l

gsave
0.000 setgray
fill
grestore
stroke
grestore
} bind def
321.851 38.016 o
grestore
gsave

313.897406 23.422250 translate
0.000000 rotate
0.000000 0 m /one glyphshow
6.362305 0 m /period glyphshow
9.541016 0 m /two glyphshow
grestore
gsave
/o {
gsave
newpath
translate
0.8 setlinewidth
1 setlinejoin

0 setlinecap

0 0 m
0 -3.5 l

gsave
0.000 setgray
fill
grestore
stroke
grestore
} bind def
363.187 38.016 o
grestore
gsave

355.233706 23.422250 translate
0.000000 rotate
0.000000 0 m /one glyphshow
6.362305 0 m /period glyphshow
9.541016 0 m /four glyphshow
grestore
gsave
/o {
gsave
newpath
translate
0.8 setlinewidth
1 setlinejoin

0 setlinecap

0 0 m
0 -3.5 l

gsave
0.000 setgray
fill
grestore
stroke
grestore
} bind def
404.523 38.016 o
grestore
gsave

396.570007 23.422250 translate
0.000000 rotate
0.000000 0 m /one glyphshow
6.362305 0 m /period glyphshow
9.541016 0 m /six glyphshow
grestore
gsave

234.199062 9.750375 translate
0.000000 rotate
0.000000 0 m /t glyphshow
grestore
gsave
/o {
gsave
newpath
translate
0.8 setlinewidth
1 setlinejoin

0 setlinecap

-0 0 m
-3.5 0 l

gsave
0.000 setgray
fill
grestore
stroke
grestore
} bind def
57.6 41.5794 o
grestore
gsave

26.318750 37.782487 translate
0.000000 rotate
0.000000 0 m /minus glyphshow
8.378906 0 m /one glyphshow
14.741211 0 m /period glyphshow
17.919922 0 m /five glyphshow
grestore
gsave
/o {
gsave
newpath
translate
0.8 setlinewidth
1 setlinejoin

0 setlinecap

-0 0 m
-3.5 0 l

gsave
0.000 setgray
fill
grestore
stroke
grestore
} bind def
57.6 91.6394 o
grestore
gsave

26.318750 87.842521 translate
0.000000 rotate
0.000000 0 m /minus glyphshow
8.378906 0 m /one glyphshow
14.741211 0 m /period glyphshow
17.919922 0 m /zero glyphshow
grestore
gsave
/o {
gsave
newpath
translate
0.8 setlinewidth
1 setlinejoin

0 setlinecap

-0 0 m
-3.5 0 l

gsave
0.000 setgray
fill
grestore
stroke
grestore
} bind def
57.6 141.699 o
grestore
gsave

26.318750 137.902555 translate
0.000000 rotate
0.000000 0 m /minus glyphshow
8.378906 0 m /zero glyphshow
14.741211 0 m /period glyphshow
17.919922 0 m /five glyphshow
grestore
gsave
/o {
gsave
newpath
translate
0.8 setlinewidth
1 setlinejoin

0 setlinecap

-0 0 m
-3.5 0 l

gsave
0.000 setgray
fill
grestore
stroke
grestore
} bind def
57.6 191.759 o
grestore
gsave

34.693750 187.962590 translate
0.000000 rotate
0.000000 0 m /zero glyphshow
6.362305 0 m /period glyphshow
9.541016 0 m /zero glyphshow
grestore
gsave
/o {
gsave
newpath
translate
0.8 setlinewidth
1 setlinejoin

0 setlinecap

-0 0 m
-3.5 0 l

gsave
0.000 setgray
fill
grestore
stroke
grestore
} bind def
57.6 241.819 o
grestore
gsave

34.693750 238.022624 translate
0.000000 rotate
0.000000 0 m /zero glyphshow
6.362305 0 m /period glyphshow
9.541016 0 m /five glyphshow
grestore
gsave
/o {
gsave
newpath
translate
0.8 setlinewidth
1 setlinejoin

0 setlinecap

-0 0 m
-3.5 0 l

gsave
0.000 setgray
fill
grestore
stroke
grestore
} bind def
57.6 291.88 o
grestore
gsave

34.693750 288.082658 translate
0.000000 rotate
0.000000 0 m /one glyphshow
6.362305 0 m /period glyphshow
9.541016 0 m /zero glyphshow
grestore
gsave

20.240625 168.111062 translate
90.000000 rotate
0.000000 0 m /y glyphshow
grestore
1.500 setlinewidth
2 setlinecap
0.122 0.467 0.706 setrgbcolor
gsave
357.12 266.112 57.6 38.016 clipbox
73.832727 91.639396 m
74.128816 91.731748 l
76.004999 92.701146 l
76.28668 92.712888 l
76.547993 92.978457 l
76.800201 92.983564 l
77.050957 93.19741 l
77.304456 93.25512 l
78.081269 93.671825 l
81.195087 95.12203 l
81.454151 95.439777 l
81.713542 95.380301 l
81.972974 95.698092 l
82.232825 95.647688 l
82.492793 95.948894 l
82.753173 95.925492 l
83.01363 96.190864 l
83.274338 96.2149 l
83.795322 96.515317 l
87.945585 98.588218 l
88.201857 98.857927 l
88.457519 98.823511 l
88.713555 99.135324 l
88.971213 99.090132 l
89.230691 99.391355 l
89.492334 99.383184 l
89.755256 99.628574 l
90.280379 99.838163 l
90.539333 100.047098 l
90.795093 100.047504 l
91.04902 100.349457 l
91.303488 100.301721 l
91.560142 100.609308 l
91.820286 100.593484 l
92.083357 100.84951 l
92.611577 101.057566 l
92.871023 101.275172 l
93.125766 101.263034 l
93.37811 101.575374 l
93.631737 101.529128 l
93.88904 101.82489 l
94.151255 101.838662 l
94.681813 102.193376 l
94.941859 102.244487 l
95.195759 102.536028 l
95.446956 102.484363 l
95.700046 102.794487 l
95.95868 102.788982 l
96.489836 103.142622 l
96.752568 103.21682 l
97.007547 103.502102 l
97.257965 103.44944 l
97.509753 103.760925 l
97.767866 103.760802 l
98.300253 104.127325 l
98.561368 104.171677 l
98.813746 104.478667 l
99.063258 104.424921 l
99.316829 104.720521 l
99.578827 104.756718 l
100.110994 105.145493 l
100.364892 105.12238 l
100.613585 105.447347 l
100.865863 105.422245 l
101.395492 105.791751 l
101.659345 105.852305 l
101.911754 106.160055 l
102.15996 106.107044 l
102.41334 106.393709 l
102.94628 106.588578 l
103.205372 106.85737 l
103.454097 106.805327 l
103.703227 107.11402 l
103.962147 107.145737 l
105.78257 108.259747 l
106.033367 108.223037 l
106.280142 108.541589 l
106.535814 108.561835 l
107.069198 108.979385 l
107.318272 108.936323 l
107.565205 109.248044 l
108.093722 109.436258 l
108.353756 109.707825 l
108.600005 109.656199 l
108.84908 109.948576 l
109.382614 110.124135 l
109.634199 110.432206 l
109.879473 110.388784 l
110.405716 110.795926 l
110.665425 110.812332 l
110.910254 111.13815 l
111.160241 111.138459 l
111.693553 111.572763 l
111.939872 111.528374 l
112.186551 111.825482 l
112.719612 111.992783 l
112.967478 112.30948 l
113.212678 112.282863 l
113.744735 112.720604 l
113.993029 112.688659 l
114.237477 112.99379 l
114.769529 113.157616 l
115.016488 113.473953 l
115.261275 113.453555 l
115.793485 113.901621 l
116.037786 113.860202 l
116.284057 114.146573 l
116.81534 114.305938 l
117.057024 114.628244 l
117.30735 114.652836 l
117.579772 114.795605 l
117.834013 115.091113 l
118.07535 115.056352 l
118.605756 115.511839 l
118.849675 115.475933 l
119.094672 115.760504 l
120.39248 116.389005 l
120.635876 116.704808 l
120.880457 116.707197 l
121.150444 116.86975 l
121.407147 117.159234 l
121.646468 117.12859 l
122.176403 117.597415 l
122.415324 117.557618 l
122.940349 118.020335 l
123.184268 117.994516 l
123.698546 118.437803 l
123.951555 118.439053 l
124.19055 118.737658 l
125.483083 119.34267 l
125.719012 119.656803 l
126.246706 119.797521 l
126.482511 120.112598 l
127.00908 120.251558 l
127.244938 120.565855 l
127.770743 120.703518 l
128.00625 121.016911 l
128.53187 121.153072 l
128.766414 121.465758 l
129.29209 121.600719 l
129.525347 121.912049 l
130.050553 122.047931 l
130.282966 122.355405 l
130.806536 122.496988 l
131.039492 122.79596 l
132.554349 123.672035 l
132.834233 123.900556 l
133.06817 123.874427 l
133.591076 124.375877 l
133.82053 124.348757 l
135.331976 125.316442 l
135.610603 125.388524 l
135.83842 125.692018 l
136.587716 126.111889 l
136.869181 126.337828 l
137.100734 126.317507 l
137.619045 126.817142 l
137.847621 126.809395 l
138.122967 126.951855 l
138.359557 127.246881 l
138.879611 127.371822 l
139.378289 127.844927 l
139.616006 127.84359 l
140.135174 128.354614 l
140.360664 128.342832 l
140.635871 128.485298 l
140.869775 128.777886 l
141.385113 128.908046 l
141.895432 129.415018 l
142.121816 129.397233 l
142.863575 129.912327 l
143.14922 129.99073 l
143.643094 130.471174 l
143.875263 130.470181 l
144.614471 130.98894 l
144.902933 131.074301 l
145.394842 131.557882 l
145.624529 131.55702 l
146.362743 132.083753 l
146.647728 132.153755 l
147.152175 132.677263 l
147.371574 132.658876 l
148.606605 133.488011 l
148.890135 133.775751 l
149.399981 133.867992 l
149.890511 134.376743 l
150.109849 134.369797 l
151.344932 135.189559 l
151.615064 135.470805 l
152.127575 135.575481 l
152.634726 136.139099 l
152.844189 136.118073 l
153.132326 136.206927 l
153.624378 136.743304 l
153.834437 136.731324 l
154.114803 136.853433 l
154.60536 137.338122 l
154.823624 137.347085 l
155.095578 137.495987 l
155.585777 137.938748 l
155.813667 137.964663 l
172.462163 148.721112 l
172.786166 148.84062 l
173.191196 149.25573 l
174.176337 149.871346 l
174.699603 150.221673 l
175.192334 150.472944 l
175.716229 150.983781 l
176.112494 151.091901 l
178.340779 152.589218 l
178.617532 152.67977 l
179.344161 153.344124 l
179.81893 153.485472 l
180.764398 154.199663 l
181.199298 154.453158 l
181.951628 154.996185 l
182.480234 155.259037 l
183.189231 155.836289 l
183.721237 156.039499 l
184.36378 156.619526 l
185.081295 157.024343 l
185.84578 157.589079 l
186.319885 157.814096 l
187.032279 158.405069 l
187.757262 158.790896 l
188.484391 159.355131 l
189.02122 159.565709 l
189.671486 160.16756 l
190.416742 160.539342 l
191.154402 161.185645 l
191.833936 161.508007 l
192.558959 162.096879 l
193.294445 162.478356 l
194.016209 163.079941 l
194.735595 163.448231 l
195.46004 164.050721 l
196.189633 164.415342 l
196.927072 165.060799 l
197.589784 165.376251 l
198.538856 166.092174 l
199.275288 166.520828 l
200.217314 167.20327 l
200.961567 167.675775 l
201.589112 168.137542 l
202.840027 168.991889 l
203.364284 169.354454 l
203.968549 169.715137 l
206.479214 171.505234 l
207.304543 171.974872 l
208.795438 172.982494 l
209.306595 173.325943 l
210.139574 173.925451 l
212.803441 175.71655 l
215.529069 177.661772 l
216.512665 178.252607 l
221.843621 181.922223 l
222.967577 182.665968 l
226.659418 185.193187 l
227.586161 185.836121 l
241.993159 195.703563 l
243.579696 196.798523 l
255.940047 205.187778 l
256.94613 205.836163 l
257.977292 206.639275 l
278.71768 220.667505 l
282.616207 223.323334 l
284.646105 224.63306 l
290.715903 228.649433 l
291.39332 229.129167 l
296.473798 232.502205 l
297.702545 233.276336 l
322.542098 249.233106 l
323.062924 249.549713 l
323.588093 249.904587 l
324.116941 250.19529 l
324.645742 250.576275 l
325.172634 250.845359 l
325.697979 251.238567 l
326.221811 251.493764 l
326.744683 251.892123 l
327.266763 252.141737 l
327.788463 252.53852 l
328.310055 252.791225 l
328.832251 253.17901 l
329.355315 253.445162 l
329.879866 253.814971 l
330.164048 253.908877 l
330.928544 254.443543 l
331.198611 254.548718 l
331.709834 254.968446 l
332.22346 255.198443 l
332.741707 255.5783 l
333.024453 255.665114 l
333.787549 256.185243 l
334.309191 256.540102 l
338.943483 259.337499 l
339.224154 259.419433 l
339.721594 259.829818 l
339.991576 259.893612 l
340.501184 260.320447 l
340.757281 260.371297 l
342.283535 261.310341 l
342.539063 261.437702 l
342.809639 261.706974 l
343.307526 261.888332 l
343.573832 262.159248 l
344.072933 262.340714 l
344.337399 262.613482 l
344.835083 262.795124 l
345.100724 263.070513 l
345.59408 263.251989 l
345.863575 263.529356 l
346.350422 263.71167 l
346.624664 263.985191 l
346.862362 264.009594 l
348.129795 264.846196 l
348.39131 264.868405 l
348.874859 265.251545 l
349.148746 265.301835 l
349.388082 265.577845 l
349.890167 265.768734 l
350.153521 266.058798 l
350.384776 266.075303 l
351.631809 266.853743 l
351.904295 266.911047 l
352.14762 267.205489 l
352.377465 267.242925 l
354.873505 268.758816 l
355.13611 268.767011 l
355.367018 269.06039 l
355.598249 269.098842 l
357.348123 270.214159 l
357.592196 270.180308 l
357.817412 270.457602 l
358.052719 270.502131 l
358.567828 270.89481 l
358.8179 270.870187 l
359.043964 271.167781 l
359.273554 271.183681 l
359.773921 271.537387 l
360.03527 271.569699 l
360.272728 271.888229 l
360.496444 271.857172 l
360.728667 272.098505 l
361.227806 272.315949 l
361.487221 272.564984 l
361.726641 272.517416 l
361.949965 272.813899 l
362.178449 272.814935 l
362.417088 273.044665 l
362.920434 273.253101 l
363.173862 273.521334 l
363.406718 273.464745 l
363.62919 273.755696 l
363.857652 273.752215 l
364.094424 273.9935 l
364.338117 274.046397 l
364.84062 274.413321 l
365.084465 274.401157 l
365.311431 274.708932 l
365.534345 274.675719 l
365.763137 274.936207 l
365.998396 274.945018 l
366.238042 275.187387 l
366.481189 275.238169 l
366.974806 275.589936 l
367.214633 275.595923 l
367.44231 275.884865 l
367.665708 275.855058 l
367.892518 276.11807 l
368.12409 276.111606 l
368.358561 276.37569 l
368.594587 276.372931 l
368.831715 276.625304 l
369.070331 276.655729 l
369.5509 276.971319 l
369.789174 277.052317 l
370.021733 277.281005 l
370.248679 277.280167 l
370.473988 277.530373 l
370.700902 277.527453 l
370.929923 277.784188 l
371.160222 277.769032 l
371.390717 278.043687 l
371.621142 278.01392 l
371.851391 278.297196 l
372.081763 278.263459 l
372.312192 278.546188 l
372.542869 278.516269 l
372.773618 278.791895 l
373.004539 278.77218 l
373.235412 279.034031 l
373.466273 279.031045 l
373.696867 279.272402 l
373.927172 279.291599 l
374.156934 279.508008 l
374.386117 279.55082 l
374.842314 279.805022 l
375.521871 280.222093 l
376.197811 280.530253 l
376.87069 280.961524 l
377.09419 280.988642 l
377.317158 281.212439 l
377.539648 281.211204 l
377.761529 281.463721 l
377.982919 281.431567 l
378.203723 281.71239 l
378.42416 281.653363 l
378.644216 281.954972 l
378.864225 281.880337 l
379.08423 282.18998 l
379.304577 282.113803 l
379.52523 282.419176 l
379.746379 282.352552 l
379.967804 282.644461 l
380.1895 282.596163 l
380.411179 282.864033 l
380.63276 282.847041 l
380.854028 283.07308 l
381.074844 283.108981 l
381.51425 283.384447 l
381.732271 283.442855 l
381.948656 283.668083 l
382.163271 283.613646 l
382.376051 283.933077 l
382.587693 283.81509 l
382.799125 284.146116 l
383.011907 284.065498 l
383.226973 284.327055 l
383.444471 284.335027 l
383.8816 284.616055 l
384.098443 284.666514 l
384.312851 284.912033 l
384.524562 284.818651 l
384.733699 285.172891 l
384.941516 285.03274 l
385.149675 285.343997 l
385.360132 285.320218 l
385.787335 285.624305 l
386.000417 285.613294 l
386.211077 285.922146 l
386.419217 285.775596 l
386.625581 286.136065 l
386.832143 286.041684 l
387.250803 286.363606 l
387.461038 286.360638 l
387.66924 286.674157 l
387.875047 286.513554 l
388.079229 286.874262 l
388.283857 286.799392 l
388.697855 287.141997 l
388.90419 287.052553 l
389.108113 287.425965 l
389.31045 287.261205 l
389.512888 287.542262 l
389.921872 287.596664 l
390.125034 287.938107 l
390.32611 287.750224 l
390.52622 288.086017 l
390.929796 288.115654 l
391.131161 288.445301 l
391.330467 288.247456 l
391.528662 288.592748 l
391.927788 288.599404 l
392.126659 288.957084 l
392.323663 288.749888 l
392.520036 289.058398 l
392.717459 289.141544 l
392.91512 289.050617 l
393.110975 289.457179 l
393.305628 289.278906 l
393.696259 289.704542 l
393.890761 289.500061 l
394.083671 289.898946 l
394.470243 289.839287 l
394.66287 290.240533 l
394.854111 290.024008 l
395.236815 290.483151 l
395.427388 290.246961 l
395.616699 290.634442 l
395.806149 290.671071 l
395.99565 290.538906 l
396.183881 290.985723 l
396.371475 290.848231 l
396.559132 290.871506 l
396.746312 291.284699 l
396.932428 291.042521 l
397.118235 291.215485 l
397.303902 291.546365 l
397.488671 291.262361 l
397.856731 291.790332 l
398.040013 291.502536 l
398.404761 292.032 l
398.487273 291.903595 l
398.487273 291.903595 l
stroke
grestore
1.000 0.498 0.055 setrgbcolor
gsave
357.12 266.112 57.6 38.016 clipbox
73.832727 91.639396 m
74.128816 91.547068 l
75.349761 90.942632 l
75.694631 90.832826 l
76.004999 90.55506 l
76.28668 90.629883 l
76.547993 90.251457 l
76.800201 90.379258 l
77.050957 90.036239 l
77.304456 90.117281 l
77.561309 89.803324 l
77.820723 89.869899 l
78.081269 89.552982 l
78.342087 89.626454 l
78.602527 89.303214 l
78.86257 89.379555 l
79.122173 89.061195 l
79.381556 89.127295 l
79.640766 88.82673 l
79.899892 88.869944 l
80.158983 88.598876 l
80.417973 88.607737 l
80.677024 88.377162 l
80.935962 88.341218 l
81.454151 88.07153 l
83.5349 86.998156 l
83.795322 87.080535 l
84.055206 86.752164 l
84.314505 86.837524 l
84.573031 86.528955 l
84.83092 86.575141 l
85.088443 86.326265 l
85.34585 86.300019 l
85.862183 86.020685 l
86.12169 85.940592 l
86.381995 85.741129 l
86.643319 85.744667 l
86.905057 85.465951 l
87.166951 85.538136 l
87.428041 85.210195 l
87.687756 85.304112 l
87.945585 84.995993 l
88.201857 85.033848 l
88.457519 84.816282 l
88.971213 84.640538 l
89.230691 84.46421 l
89.492334 84.457437 l
89.755256 84.183472 l
90.018573 84.260381 l
90.280379 83.929535 l
90.539333 84.020305 l
90.795093 83.740299 l
91.04902 83.73327 l
91.560142 83.44351 l
91.820286 83.412355 l
92.083357 83.158919 l
92.348128 83.226556 l
92.611577 82.898399 l
92.871023 82.990122 l
93.125766 82.721063 l
93.631737 82.576534 l
93.88904 82.403296 l
94.151255 82.410171 l
94.416687 82.121057 l
94.681813 82.214526 l
94.941859 81.898416 l
95.195759 81.936341 l
95.700046 81.635552 l
95.95868 81.614036 l
96.222965 81.35066 l
96.489836 81.432336 l
96.752568 81.112525 l
97.007547 81.163259 l
97.509753 80.857403 l
97.767866 80.842982 l
98.032836 80.573371 l
98.300253 80.659937 l
98.561368 80.352922 l
98.813746 80.373373 l
99.846727 79.794462 l
100.110994 79.884336 l
100.364892 79.633834 l
100.865863 79.5223 l
101.127 79.280663 l
101.395492 79.355708 l
101.659345 79.050152 l
101.911754 79.07297 l
103.703227 78.252421 l
103.962147 78.271504 l
104.231001 77.978066 l
104.494929 78.058439 l
104.992753 77.734222 l
105.248772 77.741554 l
105.516793 77.456838 l
105.78257 77.538692 l
106.280142 77.212305 l
106.535814 77.222397 l
106.80441 76.936553 l
107.069198 77.014117 l
107.565205 76.686851 l
107.823329 76.713325 l
108.093722 76.419484 l
108.353756 76.481711 l
108.84908 76.159926 l
109.112949 76.211763 l
109.382614 75.91672 l
109.879473 75.855728 l
110.134887 75.633668 l
110.405716 75.710087 l
110.665425 75.44856 l
111.160241 75.382633 l
111.427149 75.110342 l
111.693553 75.183086 l
112.186551 74.85293 l
112.449754 74.906549 l
112.719612 74.620634 l
113.212678 74.57472 l
113.473455 74.326079 l
113.744735 74.40387 l
114.237477 74.06884 l
114.498319 74.118004 l
114.769529 73.835079 l
115.261275 73.797106 l
115.524005 73.542086 l
115.793485 73.613427 l
116.284057 73.281044 l
116.551346 73.347768 l
116.81534 73.090781 l
117.30735 73.045598 l
117.579772 72.766244 l
118.07535 72.731509 l
118.332869 72.495655 l
118.605756 72.568692 l
119.094672 72.233295 l
119.363366 72.303313 l
119.86339 71.977042 l
120.118304 72.015721 l
120.39248 71.742021 l
120.880457 71.723295 l
121.150444 71.454951 l
121.646468 71.427299 l
121.905448 71.188393 l
122.176403 71.250711 l
122.664812 70.924488 l
122.940349 70.999415 l
123.427171 70.66192 l
123.698546 70.735031 l
124.19055 70.401102 l
124.455361 70.465107 l
124.954748 70.14099 l
125.213505 70.194882 l
125.719012 69.881181 l
125.973124 69.926083 l
126.246706 69.673851 l
127.494509 69.395386 l
127.770743 69.139652 l
128.255648 69.134105 l
128.53187 68.881408 l
129.29209 68.629589 l
130.806536 68.149579 l
131.039492 68.045656 l
131.304702 68.111255 l
131.795988 67.785276 l
132.069652 67.856678 l
132.554349 67.525999 l
132.834233 67.595032 l
133.591076 67.317397 l
133.82053 67.24571 l
134.081457 67.012697 l
134.572564 67.015073 l
134.849677 66.76544 l
135.331976 66.781624 l
135.83842 66.47903 l
136.099223 66.543616 l
136.587716 66.22365 l
136.869181 66.290647 l
137.619045 65.999104 l
137.847621 65.967225 l
138.122967 65.723757 l
138.604288 65.744413 l
139.10574 65.438925 l
139.378289 65.510102 l
139.859313 65.190663 l
140.360664 65.185897 l
140.635871 64.945965 l
141.385113 64.784087 l
141.612274 64.664538 l
141.895432 64.731276 l
142.629732 64.422215 l
142.863575 64.434621 l
143.37074 64.14083 l
143.643094 64.213676 l
144.384884 63.910616 l
144.614471 63.912905 l
145.122673 63.623002 l
145.394842 63.696738 l
146.129751 63.388342 l
146.362743 63.403725 l
146.867596 63.111236 l
147.152175 63.180406 l
147.371574 63.099607 l
147.635171 62.879825 l
148.373979 62.762881 l
148.606605 62.614197 l
149.109917 62.621023 l
149.614063 62.334498 l
149.890511 62.409077 l
151.615064 61.852505 l
151.841817 61.86559 l
152.343538 61.577179 l
152.844189 61.596198 l
153.340373 61.312967 l
153.834437 61.320877 l
154.32868 61.060778 l
154.60536 61.121927 l
156.30847 60.560031 l
156.565958 60.61077 l
157.297701 60.312309 l
157.547609 60.358044 l
158.285421 60.064936 l
158.530935 60.107963 l
159.270252 59.817509 l
159.515492 59.860504 l
160.252003 59.570183 l
160.501687 59.615678 l
161.232085 59.323053 l
161.491624 59.373257 l
163.201879 58.822401 l
163.69785 58.85422 l
164.120226 58.644154 l
165.899341 58.31918 l
166.390259 58.084602 l
166.886008 58.118088 l
167.307448 57.912201 l
169.316953 57.496794 l
169.778171 57.380209 l
170.270823 57.325675 l
170.779642 57.126678 l
171.290391 57.155742 l
171.946203 56.913506 l
172.462163 56.869153 l
173.191196 56.660625 l
173.647567 56.605746 l
174.176337 56.42852 l
174.954222 56.357053 l
175.415173 56.173357 l
175.91492 56.197985 l
176.565325 55.975169 l
177.388262 55.858815 l
177.851142 55.703211 l
178.340779 55.722376 l
179.061974 55.474818 l
179.547043 55.491027 l
180.266911 55.251877 l
180.764398 55.27059 l
181.415275 55.063059 l
182.480234 54.856886 l
182.973544 54.793881 l
183.418155 54.78161 l
184.095768 54.59394 l
184.839337 54.506609 l
185.317566 54.37328 l
186.319885 54.230767 l
186.757854 54.14595 l
187.516544 54.074042 l
187.980111 53.93022 l
189.02122 53.802195 l
189.381106 53.729169 l
190.416742 53.583785 l
190.867456 53.494767 l
191.545369 53.451131 l
192.281705 53.298549 l
193.028083 53.243254 l
193.757488 53.082333 l
194.475989 53.040074 l
195.194071 52.885482 l
195.91313 52.846637 l
196.632727 52.689847 l
197.296024 52.657746 l
198.538856 52.509484 l
200.767746 52.19403 l
201.380307 52.131722 l
202.366868 52.008996 l
203.171823 51.945001 l
203.513172 51.924834 l
204.787297 51.770368 l
205.404649 51.707448 l
206.479214 51.595232 l
207.058277 51.544675 l
208.334742 51.440409 l
210.699449 51.217027 l
211.715052 51.106127 l
212.293472 51.085685 l
215.529069 50.82512 l
216.049539 50.809108 l
219.214108 50.590678 l
228.067311 50.231004 l
244.095025 50.220307 l
250.713831 50.542465 l
252.841891 50.549428 l
253.738449 50.532687 l
254.331116 50.678537 l
255.610168 50.768873 l
256.461751 50.888192 l
257.348447 50.839211 l
267.166084 51.682062 l
270.342963 52.107145 l
270.854279 52.173616 l
271.271585 52.155244 l
273.831517 52.465417 l
275.738505 52.612979 l
276.02103 52.590403 l
276.625426 52.800825 l
278.451821 53.042696 l
279.849428 53.327296 l
280.134286 53.428341 l
280.743308 53.39249 l
282.616207 53.647435 l
283.440238 53.731826 l
283.838258 53.841028 l
285.486492 54.158767 l
285.803465 54.301417 l
286.371003 54.260537 l
288.619473 54.571513 l
289.118151 54.681713 l
290.097896 54.891835 l
291.921414 55.22809 l
294.596718 55.716411 l
295.639896 55.942131 l
297.47595 56.263787 l
299.345196 56.667249 l
300.694151 56.956078 l
301.296524 57.134302 l
302.100786 57.177424 l
303.948643 57.613931 l
304.497929 57.755415 l
305.552023 57.997756 l
306.365191 58.18656 l
307.177851 58.384276 l
307.987061 58.54546 l
308.791923 58.772175 l
309.592712 58.920357 l
310.391203 59.14777 l
311.188406 59.317839 l
311.981021 59.515305 l
312.526087 59.61205 l
313.312889 59.869023 l
313.858499 59.92396 l
314.64246 60.219407 l
315.17523 60.260869 l
315.968859 60.565953 l
316.493097 60.604511 l
317.288876 60.905809 l
317.819541 60.946777 l
318.598754 61.233212 l
319.149999 61.296679 l
319.65378 61.539229 l
320.450829 61.689391 l
320.98937 61.905772 l
321.509842 61.948163 l
322.024987 62.188959 l
322.812644 62.352344 l
323.344363 62.533287 l
323.876806 62.619993 l
324.404991 62.855686 l
324.929534 62.908062 l
325.452357 63.157701 l
325.974282 63.207236 l
326.496024 63.458625 l
327.017834 63.510116 l
327.540202 63.763093 l
328.063176 63.816698 l
328.587374 64.071125 l
329.11269 64.129961 l
329.638945 64.378088 l
330.164048 64.458928 l
330.684243 64.667151 l
330.928544 64.677661 l
331.709834 64.946325 l
332.22346 65.145812 l
332.741707 65.241461 l
338.442713 67.108695 l
339.468812 67.475005 l
339.991576 67.555281 l
340.230395 67.720106 l
340.757281 67.795665 l
340.99773 67.971563 l
341.768079 68.225448 l
343.809579 68.825689 l
344.337399 69.096823 l
344.572503 69.086705 l
345.100724 69.356325 l
345.335287 69.349063 l
345.863575 69.612148 l
346.098353 69.61326 l
346.624664 69.860537 l
346.862362 69.879863 l
347.105765 70.06348 l
347.627148 70.150401 l
347.862631 70.330315 l
348.39131 70.432224 l
348.623246 70.598709 l
348.874859 70.58969 l
349.388082 70.868142 l
349.623869 70.857553 l
350.153521 71.124531 l
350.384776 71.132752 l
350.629333 71.320007 l
351.150554 71.41943 l
351.380545 71.584953 l
351.631809 71.576967 l
352.14762 71.855944 l
352.377465 71.857247 l
352.629858 72.049486 l
353.144757 72.149192 l
353.373407 72.310516 l
353.622369 72.304199 l
354.141739 72.576549 l
354.369279 72.596882 l
354.610607 72.777392 l
354.873505 72.767918 l
355.367018 73.039695 l
355.598249 73.051149 l
355.849577 73.246342 l
356.117031 73.243063 l
357.081818 73.713889 l
357.348123 73.709709 l
358.303818 74.178437 l
358.567828 74.16085 l
359.043964 74.419194 l
359.273554 74.456579 l
359.517173 74.635122 l
359.773921 74.613399 l
360.03527 74.828104 l
360.496444 74.946372 l
360.728667 75.082969 l
360.972769 75.09341 l
361.227806 75.317417 l
361.487221 75.289204 l
361.949965 75.531732 l
362.664871 75.746058 l
362.920434 75.988289 l
363.173862 75.953009 l
363.62919 76.184092 l
366.481189 77.267674 l
366.727567 77.517955 l
366.974806 77.437917 l
367.214633 77.706342 l
367.44231 77.666674 l
367.665708 77.852616 l
368.12409 78.009795 l
373.004539 79.976605 l
373.235412 80.181849 l
373.466273 80.151973 l
373.696867 80.395441 l
373.927172 80.330115 l
374.156934 80.605373 l
374.386117 80.512605 l
374.614557 80.809501 l
374.842314 80.699961 l
375.069364 81.007856 l
375.295872 80.891018 l
375.521871 81.202497 l
375.747521 81.084099 l
375.972802 81.395383 l
376.197811 81.278389 l
376.422457 81.586968 l
376.646791 81.474247 l
376.87069 81.776258 l
377.09419 81.672951 l
377.317158 81.96133 l
377.539648 81.876331 l
377.761529 82.139992 l
377.982919 82.086094 l
378.203723 82.310987 l
378.42416 82.302519 l
378.864225 82.523389 l
379.746379 82.966399 l
379.967804 82.97035 l
380.1895 83.187716 l
380.411179 83.139032 l
380.63276 83.40919 l
380.854028 83.30933 l
381.074844 83.627133 l
381.295023 83.48637 l
381.51425 83.831915 l
381.732271 83.682206 l
381.948656 84.00565 l
382.163271 83.914241 l
382.376051 84.133763 l
382.799125 84.242845 l
383.011907 84.43946 l
383.226973 84.381013 l
383.444471 84.672696 l
383.663205 84.546365 l
383.8816 84.889479 l
384.098443 84.737655 l
384.312851 85.061154 l
384.524562 84.987057 l
384.941516 85.283329 l
385.149675 85.249625 l
385.360132 85.542235 l
385.573207 85.403001 l
385.787335 85.747994 l
386.000417 85.61508 l
386.211077 85.883171 l
386.625581 85.951333 l
386.832143 86.202672 l
387.040503 86.067592 l
387.250803 86.423059 l
387.461038 86.276168 l
387.66924 86.547851 l
388.079229 86.597317 l
388.283857 86.888205 l
388.490301 86.721883 l
388.697855 87.081342 l
388.90419 86.97534 l
389.31045 87.319036 l
389.512888 87.201285 l
389.717034 87.572959 l
389.921872 87.407121 l
390.32611 87.755745 l
390.52622 87.683478 l
390.727408 88.049866 l
390.929796 87.861765 l
391.131161 88.146575 l
391.330467 88.22039 l
391.528662 88.146127 l
391.727724 88.524199 l
391.927788 88.332581 l
392.323663 88.718183 l
392.520036 88.586919 l
392.717459 88.989606 l
392.91512 88.831378 l
393.305628 89.241037 l
393.500566 89.029526 l
393.696259 89.414835 l
394.083671 89.354287 l
394.276647 89.746406 l
394.470243 89.52903 l
394.854111 89.974094 l
395.045224 89.74955 l
395.236815 90.147913 l
395.616699 90.048991 l
395.806149 90.483515 l
395.99565 90.303017 l
396.183881 90.397575 l
396.371475 90.760446 l
396.559132 90.497101 l
396.932428 90.996109 l
397.118235 90.726478 l
397.303902 91.10021 l
397.488671 91.214328 l
397.672801 90.982088 l
397.856731 91.421467 l
398.040013 91.433775 l
398.222565 91.249989 l
398.487273 91.808317 l
398.487273 91.808317 l
stroke
grestore
0.800 setlinewidth
0 setlinejoin
0.000 setgray
gsave
57.6 38.016 m
57.6 304.128 l
stroke
grestore
gsave
414.72 38.016 m
414.72 304.128 l
stroke
grestore
gsave
57.6 38.016 m
414.72 38.016 l
stroke
grestore
gsave
57.6 304.128 m
414.72 304.128 l
stroke
grestore

end
showpage
